simulation/modelsim/msim_transcript
# ERROR: No extended dataflow license exists
# do processor_8085_multi_run_msim_rtl_verilog.do
# if {[file exists rtl_work]} {
# 	vdel -lib rtl_work -all
# }
# vlib rtl_work
# vmap work rtl_work
# Model Technology ModelSim - Intel FPGA Edition vmap 10.5b Lib Mapping Utility 2016.10 Oct  5 2016
# vmap work rtl_work 
# Copying /home/alex/intelFPGA/18.1/modelsim_ase/linuxaloem/../modelsim.ini to modelsim.ini
# Modifying modelsim.ini
# 
# vlog -vlog01compat -work work +incdir+/home/alex/verilog_codes/processor_8085_multi {/home/alex/verilog_codes/processor_8085_multi/RF1.v}
# Model Technology ModelSim - Intel FPGA Edition vlog 10.5b Compiler 2016.10 Oct  5 2016
# Start time: 15:29:44 on May 20,2021
# vlog -reportprogress 300 -vlog01compat -work work "+incdir+/home/alex/verilog_codes/processor_8085_multi" /home/alex/verilog_codes/processor_8085_multi/RF1.v 
# -- Compiling module RF1
# 
# Top level modules:
# 	RF1
# End time: 15:29:44 on May 20,2021, Elapsed time: 0:00:00
# Errors: 0, Warnings: 0
# vlog -vlog01compat -work work +incdir+/home/alex/verilog_codes/processor_8085_multi {/home/alex/verilog_codes/processor_8085_multi/flag.v}
# Model Technology ModelSim - Intel FPGA Edition vlog 10.5b Compiler 2016.10 Oct  5 2016
# Start time: 15:29:44 on May 20,2021
# vlog -reportprogress 300 -vlog01compat -work work "+incdir+/home/alex/verilog_codes/processor_8085_multi" /home/alex/verilog_codes/processor_8085_multi/flag.v 
# -- Compiling module flag
# 
# Top level modules:
# 	flag
# End time: 15:29:44 on May 20,2021, Elapsed time: 0:00:00
# Errors: 0, Warnings: 0
# vlog -vlog01compat -work work +incdir+/home/alex/verilog_codes/processor_8085_multi {/home/alex/verilog_codes/processor_8085_multi/ALU_8085.v}
# Model Technology ModelSim - Intel FPGA Edition vlog 10.5b Compiler 2016.10 Oct  5 2016
# Start time: 15:29:44 on May 20,2021
# vlog -reportprogress 300 -vlog01compat -work work "+incdir+/home/alex/verilog_codes/processor_8085_multi" /home/alex/verilog_codes/processor_8085_multi/ALU_8085.v 
# -- Compiling module ALU_8085
# 
# Top level modules:
# 	ALU_8085
# End time: 15:29:44 on May 20,2021, Elapsed time: 0:00:00
# Errors: 0, Warnings: 0
# vlog -vlog01compat -work work +incdir+/home/alex/verilog_codes/processor_8085_multi {/home/alex/verilog_codes/processor_8085_multi/temp.v}
# Model Technology ModelSim - Intel FPGA Edition vlog 10.5b Compiler 2016.10 Oct  5 2016
# Start time: 15:29:44 on May 20,2021
# vlog -reportprogress 300 -vlog01compat -work work "+incdir+/home/alex/verilog_codes/processor_8085_multi" /home/alex/verilog_codes/processor_8085_multi/temp.v 
# -- Compiling module temp
# 
# Top level modules:
# 	temp
# End time: 15:29:44 on May 20,2021, Elapsed time: 0:00:00
# Errors: 0, Warnings: 0
# vlog -vlog01compat -work work +incdir+/home/alex/verilog_codes/processor_8085_multi {/home/alex/verilog_codes/processor_8085_multi/ir.v}
# Model Technology ModelSim - Intel FPGA Edition vlog 10.5b Compiler 2016.10 Oct  5 2016
# Start time: 15:29:44 on May 20,2021
# vlog -reportprogress 300 -vlog01compat -work work "+incdir+/home/alex/verilog_codes/processor_8085_multi" /home/alex/verilog_codes/processor_8085_multi/ir.v 
# -- Compiling module ir
# 
# Top level modules:
# 	ir
# End time: 15:29:44 on May 20,2021, Elapsed time: 0:00:00
# Errors: 0, Warnings: 0
# vlog -vlog01compat -work work +incdir+/home/alex/verilog_codes/processor_8085_multi {/home/alex/verilog_codes/processor_8085_multi/processor_8085_multi.v}
# Model Technology ModelSim - Intel FPGA Edition vlog 10.5b Compiler 2016.10 Oct  5 2016
# Start time: 15:29:44 on May 20,2021
# vlog -reportprogress 300 -vlog01compat -work work "+incdir+/home/alex/verilog_codes/processor_8085_multi" /home/alex/verilog_codes/processor_8085_multi/processor_8085_multi.v 
# -- Compiling module processor_8085_multi
# 
# Top level modules:
# 	processor_8085_multi
# End time: 15:29:44 on May 20,2021, Elapsed time: 0:00:00
# Errors: 0, Warnings: 0
# vlog -vlog01compat -work work +incdir+/home/alex/verilog_codes/processor_8085_multi {/home/alex/verilog_codes/processor_8085_multi/alu_control_8085_multi.v}
# Model Technology ModelSim - Intel FPGA Edition vlog 10.5b Compiler 2016.10 Oct  5 2016
# Start time: 15:29:44 on May 20,2021
# vlog -reportprogress 300 -vlog01compat -work work "+incdir+/home/alex/verilog_codes/processor_8085_multi" /home/alex/verilog_codes/processor_8085_multi/alu_control_8085_multi.v 
# -- Compiling module alu_control_8085_multi
# 
# Top level modules:
# 	alu_control_8085_multi
# End time: 15:29:44 on May 20,2021, Elapsed time: 0:00:00
# Errors: 0, Warnings: 0
# vlog -vlog01compat -work work +incdir+/home/alex/verilog_codes/processor_8085_multi {/home/alex/verilog_codes/processor_8085_multi/controller_8085_multi.v}
# Model Technology ModelSim - Intel FPGA Edition vlog 10.5b Compiler 2016.10 Oct  5 2016
# Start time: 15:29:44 on May 20,2021
# vlog -reportprogress 300 -vlog01compat -work work "+incdir+/home/alex/verilog_codes/processor_8085_multi" /home/alex/verilog_codes/processor_8085_multi/controller_8085_multi.v 
# -- Compiling module controller_8085_multi
# 
# Top level modules:
# 	controller_8085_multi
# End time: 15:29:45 on May 20,2021, Elapsed time: 0:00:01
# Errors: 0, Warnings: 0
# vlog -vlog01compat -work work +incdir+/home/alex/verilog_codes/processor_8085_multi {/home/alex/verilog_codes/processor_8085_multi/MEM_8085_multi.v}
# Model Technology ModelSim - Intel FPGA Edition vlog 10.5b Compiler 2016.10 Oct  5 2016
# Start time: 15:29:45 on May 20,2021
# vlog -reportprogress 300 -vlog01compat -work work "+incdir+/home/alex/verilog_codes/processor_8085_multi" /home/alex/verilog_codes/processor_8085_multi/MEM_8085_multi.v 
# -- Compiling module MEM_8085_multi
# 
# Top level modules:
# 	MEM_8085_multi
# End time: 15:29:45 on May 20,2021, Elapsed time: 0:00:00
# Errors: 0, Warnings: 0
# 
# vlog -vlog01compat -work work +incdir+/home/alex/verilog_codes/processor_8085_multi {/home/alex/verilog_codes/processor_8085_multi/generic_testbench_multi_8085.v}
# Model Technology ModelSim - Intel FPGA Edition vlog 10.5b Compiler 2016.10 Oct  5 2016
# Start time: 15:29:45 on May 20,2021
# vlog -reportprogress 300 -vlog01compat -work work "+incdir+/home/alex/verilog_codes/processor_8085_multi" /home/alex/verilog_codes/processor_8085_multi/generic_testbench_multi_8085.v 
# -- Compiling module generic_testbench_multi_8085
# 
# Top level modules:
# 	generic_testbench_multi_8085
# End time: 15:29:45 on May 20,2021, Elapsed time: 0:00:00
# Errors: 0, Warnings: 0
# 
# vsim -t 1ps -L altera_ver -L lpm_ver -L sgate_ver -L altera_mf_ver -L altera_lnsim_ver -L cycloneive_ver -L rtl_work -L work -voptargs="+acc"  generic_testbench_multi_8085
# vsim -t 1ps -L altera_ver -L lpm_ver -L sgate_ver -L altera_mf_ver -L altera_lnsim_ver -L cycloneive_ver -L rtl_work -L work -voptargs=""+acc"" generic_testbench_multi_8085 
# Start time: 15:29:45 on May 20,2021
# Loading work.generic_testbench_multi_8085
# Loading work.processor_8085_multi
# Loading work.MEM_8085_multi
# Loading work.RF1
# Loading work.flag
# Loading work.ALU_8085
# Loading work.temp
# Loading work.ir
# Loading work.alu_control_8085_multi
# Loading work.controller_8085_multi
# 
# add wave *
# view structure
# .main_pane.structure.interior.cs.body.struct
# view signals
# .main_pane.objects.interior.cs.body.tree
# run -all
# time:                   2	,pc:  0	,ACC:  0,	B:  0,	C:  0,	D:  0,	E:  0,	H:  0,	L:  0, cy: 0,z: 0   110   180 
# time:                  12	,pc:  0	,ACC:  0,	B:  0,	C:  0,	D:  0,	E:  0,	H:  0,	L:  0, cy: 0,z: 0   110   180 
# time:                  22	,pc:  1	,ACC:  0,	B:  0,	C:  0,	D:  0,	E:  0,	H:  0,	L:  0, cy: 0,z: 0   110   180 
# time:                  32	,pc:  1	,ACC:  0,	B:  0,	C:  0,	D:  0,	E:  0,	H:  0,	L:  0, cy: 0,z: 0   110   180 
# time:                  42	,pc:  1	,ACC:  0,	B:  0,	C:  0,	D:  0,	E:  0,	H:137,	L:  0, cy: 0,z: 0   110   180 
# time:                  52	,pc:  2	,ACC:  0,	B:  0,	C:  0,	D:  0,	E:  0,	H:137,	L:  0, cy: 0,z: 0   110   180 
# time:                  62	,pc:  2	,ACC:  0,	B:  0,	C:  0,	D:  0,	E:  0,	H:137,	L:  0, cy: 0,z: 0   110   180 
# time:                  72	,pc:  2	,ACC:  0,	B:  0,	C:  0,	D:  0,	E:  0,	H:137,	L:  0, cy: 0,z: 0   110   180 
# time:                  82	,pc:  3	,ACC:  0,	B:  0,	C:  0,	D:  0,	E:  0,	H:137,	L:  0, cy: 0,z: 0   110   180 
# time:                  92	,pc:  3	,ACC:  0,	B:  0,	C:  0,	D:  0,	E:  0,	H:137,	L:  0, cy: 0,z: 0   110   180 
# time:                 102	,pc:  3	,ACC:  0,	B:  0,	C:  0,	D:  0,	E:  0,	H:137,	L:  0, cy: 0,z: 0   110   180 
# time:                 112	,pc:  3	,ACC:  0,	B:  0,	C:  0,	D:  0,	E:  0,	H:137,	L:  0, cy: 0,z: 0   110   180 
# time:                 122	,pc:  3	,ACC:  0,	B:  5,	C:  0,	D:  0,	E:  0,	H:137,	L:  0, cy: 0,z: 0   110   180 
# time:                 132	,pc:  4	,ACC:  0,	B:  5,	C:  0,	D:  0,	E:  0,	H:137,	L:  0, cy: 0,z: 0   110   180 
# time:                 142	,pc:  4	,ACC:  0,	B:  5,	C:  0,	D:  0,	E:  0,	H:137,	L:  0, cy: 0,z: 0   110   180 
# time:                 152	,pc:  4	,ACC:  0,	B:  5,	C:  0,	D:  0,	E:  0,	H:137,	L:  0, cy: 0,z: 0   110   180 
# time:                 162	,pc:  4	,ACC:  0,	B:  5,	C:  0,	D:  0,	E:  0,	H:138,	L:  0, cy: 0,z: 0   110   180 
# time:                 172	,pc:  5	,ACC:  0,	B:  5,	C:  0,	D:  0,	E:  0,	H:138,	L:  0, cy: 0,z: 0   110   180 
# time:                 182	,pc:  5	,ACC:  0,	B:  5,	C:  0,	D:  0,	E:  0,	H:138,	L:  0, cy: 0,z: 0   110   180 
# time:                 192	,pc:  5	,ACC:  0,	B:  5,	C:  0,	D:  0,	E:  0,	H:138,	L:  0, cy: 0,z: 0   110   180 
# time:                 202	,pc:  6	,ACC:  0,	B:  5,	C:  0,	D:  0,	E:  0,	H:138,	L:  0, cy: 0,z: 0   110   180 
# time:                 212	,pc:  6	,ACC:  0,	B:  5,	C:  0,	D:  0,	E:  0,	H:138,	L:  0, cy: 0,z: 0   110   180 
# time:                 222	,pc:  6	,ACC:  0,	B:  5,	C:  0,	D:  0,	E:  0,	H:138,	L:  0, cy: 0,z: 0   110   180 
# time:                 232	,pc:  6	,ACC:  0,	B:  5,	C:  0,	D:  0,	E:  0,	H:138,	L:  0, cy: 0,z: 0   110   180 
# time:                 242	,pc:  6	,ACC:  0,	B:  5,	C:  3,	D:  0,	E:  0,	H:138,	L:  0, cy: 0,z: 0   110   180 
# time:                 252	,pc:  7	,ACC:  0,	B:  5,	C:  3,	D:  0,	E:  0,	H:138,	L:  0, cy: 0,z: 0   110   180 
# time:                 262	,pc:  7	,ACC:  0,	B:  5,	C:  3,	D:  0,	E:  0,	H:138,	L:  0, cy: 0,z: 0   110   180 
# time:                 272	,pc:  7	,ACC:  0,	B:  5,	C:  3,	D:  1,	E:  0,	H:138,	L:  0, cy: 0,z: 0   110   180 
# time:                 282	,pc:  8	,ACC:  0,	B:  5,	C:  3,	D:  1,	E:  0,	H:138,	L:  0, cy: 0,z: 0   110   180 
# time:                 292	,pc:  8	,ACC:  0,	B:  5,	C:  3,	D:  1,	E:  0,	H:138,	L:  0, cy: 0,z: 0   110   180 
# time:                 302	,pc:  8	,ACC:  0,	B:  5,	C:  3,	D:  1,	E:  0,	H:138,	L:  0, cy: 0,z: 0   110   180 
# time:                 312	,pc: 13	,ACC:  0,	B:  5,	C:  3,	D:  1,	E:  0,	H:138,	L:  0, cy: 0,z: 0   110   180 
# time:                 322	,pc: 14	,ACC:  0,	B:  5,	C:  3,	D:  1,	E:  0,	H:138,	L:  0, cy: 0,z: 0   110   180 
# time:                 332	,pc: 14	,ACC:  0,	B:  5,	C:  3,	D:  1,	E:  0,	H:138,	L:  0, cy: 0,z: 0   110   180 
# time:                 342	,pc: 14	,ACC:  0,	B:  5,	C:  3,	D:  1,	E:  5,	H:138,	L:  0, cy: 0,z: 0   110   180 
# time:                 352	,pc: 15	,ACC:  0,	B:  5,	C:  3,	D:  1,	E:  5,	H:138,	L:  0, cy: 0,z: 0   110   180 
# time:                 362	,pc: 15	,ACC:  0,	B:  5,	C:  3,	D:  1,	E:  5,	H:138,	L:  0, cy: 0,z: 0   110   180 
# time:                 372	,pc: 15	,ACC:  0,	B:  5,	C:  3,	D:  1,	E:  5,	H:138,	L:  0, cy: 0,z: 0   110   180 
# time:                 382	,pc: 16	,ACC:  0,	B:  5,	C:  3,	D:  1,	E:  5,	H:138,	L:  0, cy: 0,z: 0   110   180 
# time:                 392	,pc: 16	,ACC:  0,	B:  5,	C:  3,	D:  1,	E:  5,	H:138,	L:  0, cy: 0,z: 0   110   180 
# time:                 402	,pc: 16	,ACC:  1,	B:  5,	C:  3,	D:  1,	E:  5,	H:138,	L:  0, cy: 0,z: 0   110   180 
# time:                 412	,pc: 17	,ACC:  1,	B:  5,	C:  3,	D:  1,	E:  5,	H:138,	L:  0, cy: 0,z: 0   110   180 
# time:                 422	,pc: 17	,ACC:  1,	B:  5,	C:  3,	D:  1,	E:  5,	H:138,	L:  0, cy: 0,z: 0   110   180 
# time:                 432	,pc: 17	,ACC:  1,	B:  5,	C:  3,	D:  1,	E:  5,	H:138,	L:  0, cy: 0,z: 0   110   180 
# time:                 442	,pc: 17	,ACC:  1,	B:  5,	C:  3,	D:  1,	E:  4,	H:138,	L:  0, cy: 0,z: 0   110   180 
# time:                 452	,pc: 18	,ACC:  1,	B:  5,	C:  3,	D:  1,	E:  4,	H:138,	L:  0, cy: 0,z: 0   110   180 
# time:                 462	,pc: 18	,ACC:  1,	B:  5,	C:  3,	D:  1,	E:  4,	H:138,	L:  0, cy: 0,z: 0   110   180 
# time:                 472	,pc: 15	,ACC:  1,	B:  5,	C:  3,	D:  1,	E:  4,	H:138,	L:  0, cy: 0,z: 0   110   180 
# time:                 482	,pc: 16	,ACC:  1,	B:  5,	C:  3,	D:  1,	E:  4,	H:138,	L:  0, cy: 0,z: 0   110   180 
# time:                 492	,pc: 16	,ACC:  1,	B:  5,	C:  3,	D:  1,	E:  4,	H:138,	L:  0, cy: 0,z: 0   110   180 
# time:                 502	,pc: 16	,ACC:  2,	B:  5,	C:  3,	D:  1,	E:  4,	H:138,	L:  0, cy: 0,z: 0   110   180 
# time:                 512	,pc: 17	,ACC:  2,	B:  5,	C:  3,	D:  1,	E:  4,	H:138,	L:  0, cy: 0,z: 0   110   180 
# time:                 522	,pc: 17	,ACC:  2,	B:  5,	C:  3,	D:  1,	E:  4,	H:138,	L:  0, cy: 0,z: 0   110   180 
# time:                 532	,pc: 17	,ACC:  2,	B:  5,	C:  3,	D:  1,	E:  4,	H:138,	L:  0, cy: 0,z: 0   110   180 
# time:                 542	,pc: 17	,ACC:  2,	B:  5,	C:  3,	D:  1,	E:  3,	H:138,	L:  0, cy: 0,z: 0   110   180 
# time:                 552	,pc: 18	,ACC:  2,	B:  5,	C:  3,	D:  1,	E:  3,	H:138,	L:  0, cy: 0,z: 0   110   180 
# time:                 562	,pc: 18	,ACC:  2,	B:  5,	C:  3,	D:  1,	E:  3,	H:138,	L:  0, cy: 0,z: 0   110   180 
# time:                 572	,pc: 15	,ACC:  2,	B:  5,	C:  3,	D:  1,	E:  3,	H:138,	L:  0, cy: 0,z: 0   110   180 
# time:                 582	,pc: 16	,ACC:  2,	B:  5,	C:  3,	D:  1,	E:  3,	H:138,	L:  0, cy: 0,z: 0   110   180 
# time:                 592	,pc: 16	,ACC:  2,	B:  5,	C:  3,	D:  1,	E:  3,	H:138,	L:  0, cy: 0,z: 0   110   180 
# time:                 602	,pc: 16	,ACC:  3,	B:  5,	C:  3,	D:  1,	E:  3,	H:138,	L:  0, cy: 0,z: 0   110   180 
# time:                 612	,pc: 17	,ACC:  3,	B:  5,	C:  3,	D:  1,	E:  3,	H:138,	L:  0, cy: 0,z: 0   110   180 
# time:                 622	,pc: 17	,ACC:  3,	B:  5,	C:  3,	D:  1,	E:  3,	H:138,	L:  0, cy: 0,z: 0   110   180 
# time:                 632	,pc: 17	,ACC:  3,	B:  5,	C:  3,	D:  1,	E:  3,	H:138,	L:  0, cy: 0,z: 0   110   180 
# time:                 642	,pc: 17	,ACC:  3,	B:  5,	C:  3,	D:  1,	E:  2,	H:138,	L:  0, cy: 0,z: 0   110   180 
# time:                 652	,pc: 18	,ACC:  3,	B:  5,	C:  3,	D:  1,	E:  2,	H:138,	L:  0, cy: 0,z: 0   110   180 
# time:                 662	,pc: 18	,ACC:  3,	B:  5,	C:  3,	D:  1,	E:  2,	H:138,	L:  0, cy: 0,z: 0   110   180 
# time:                 672	,pc: 15	,ACC:  3,	B:  5,	C:  3,	D:  1,	E:  2,	H:138,	L:  0, cy: 0,z: 0   110   180 
# time:                 682	,pc: 16	,ACC:  3,	B:  5,	C:  3,	D:  1,	E:  2,	H:138,	L:  0, cy: 0,z: 0   110   180 
# time:                 692	,pc: 16	,ACC:  3,	B:  5,	C:  3,	D:  1,	E:  2,	H:138,	L:  0, cy: 0,z: 0   110   180 
# time:                 702	,pc: 16	,ACC:  4,	B:  5,	C:  3,	D:  1,	E:  2,	H:138,	L:  0, cy: 0,z: 0   110   180 
# time:                 712	,pc: 17	,ACC:  4,	B:  5,	C:  3,	D:  1,	E:  2,	H:138,	L:  0, cy: 0,z: 0   110   180 
# time:                 722	,pc: 17	,ACC:  4,	B:  5,	C:  3,	D:  1,	E:  2,	H:138,	L:  0, cy: 0,z: 0   110   180 
# time:                 732	,pc: 17	,ACC:  4,	B:  5,	C:  3,	D:  1,	E:  2,	H:138,	L:  0, cy: 0,z: 0   110   180 
# time:                 742	,pc: 17	,ACC:  4,	B:  5,	C:  3,	D:  1,	E:  1,	H:138,	L:  0, cy: 0,z: 0   110   180 
# time:                 752	,pc: 18	,ACC:  4,	B:  5,	C:  3,	D:  1,	E:  1,	H:138,	L:  0, cy: 0,z: 0   110   180 
# time:                 762	,pc: 18	,ACC:  4,	B:  5,	C:  3,	D:  1,	E:  1,	H:138,	L:  0, cy: 0,z: 0   110   180 
# time:                 772	,pc: 15	,ACC:  4,	B:  5,	C:  3,	D:  1,	E:  1,	H:138,	L:  0, cy: 0,z: 0   110   180 
# time:                 782	,pc: 16	,ACC:  4,	B:  5,	C:  3,	D:  1,	E:  1,	H:138,	L:  0, cy: 0,z: 0   110   180 
# time:                 792	,pc: 16	,ACC:  4,	B:  5,	C:  3,	D:  1,	E:  1,	H:138,	L:  0, cy: 0,z: 0   110   180 
# time:                 802	,pc: 16	,ACC:  5,	B:  5,	C:  3,	D:  1,	E:  1,	H:138,	L:  0, cy: 0,z: 0   110   180 
# time:                 812	,pc: 17	,ACC:  5,	B:  5,	C:  3,	D:  1,	E:  1,	H:138,	L:  0, cy: 0,z: 0   110   180 
# time:                 822	,pc: 17	,ACC:  5,	B:  5,	C:  3,	D:  1,	E:  1,	H:138,	L:  0, cy: 0,z: 0   110   180 
# time:                 832	,pc: 17	,ACC:  5,	B:  5,	C:  3,	D:  1,	E:  1,	H:138,	L:  0, cy: 0,z: 1   110   180 
# time:                 842	,pc: 17	,ACC:  5,	B:  5,	C:  3,	D:  1,	E:  0,	H:138,	L:  0, cy: 0,z: 1   110   180 
# time:                 852	,pc: 18	,ACC:  5,	B:  5,	C:  3,	D:  1,	E:  0,	H:138,	L:  0, cy: 0,z: 1   110   180 
# time:                 862	,pc: 18	,ACC:  5,	B:  5,	C:  3,	D:  1,	E:  0,	H:138,	L:  0, cy: 0,z: 1   110   180 
# time:                 872	,pc: 18	,ACC:  5,	B:  5,	C:  3,	D:  1,	E:  0,	H:138,	L:  0, cy: 0,z: 1   110   180 
# time:                 882	,pc: 19	,ACC:  5,	B:  5,	C:  3,	D:  1,	E:  0,	H:138,	L:  0, cy: 0,z: 1   110   180 
# time:                 892	,pc: 19	,ACC:  5,	B:  5,	C:  3,	D:  1,	E:  0,	H:138,	L:  0, cy: 0,z: 1   110   180 
# time:                 902	,pc: 19	,ACC:  5,	B:  5,	C:  3,	D:  5,	E:  0,	H:138,	L:  0, cy: 0,z: 1   110   180 
# time:                 912	,pc: 20	,ACC:  5,	B:  5,	C:  3,	D:  5,	E:  0,	H:138,	L:  0, cy: 0,z: 1   110   180 
# time:                 922	,pc: 20	,ACC:  5,	B:  5,	C:  3,	D:  5,	E:  0,	H:138,	L:  0, cy: 0,z: 1   110   180 
# time:                 932	,pc:  8	,ACC:  5,	B:  5,	C:  3,	D:  5,	E:  0,	H:138,	L:  0, cy: 0,z: 1   110   180 
# time:                 942	,pc:  9	,ACC:  5,	B:  5,	C:  3,	D:  5,	E:  0,	H:138,	L:  0, cy: 0,z: 1   110   180 
# time:                 952	,pc:  9	,ACC:  5,	B:  5,	C:  3,	D:  5,	E:  0,	H:138,	L:  0, cy: 0,z: 1   110   180 
# time:                 962	,pc:  9	,ACC:  5,	B:  5,	C:  3,	D:  5,	E:  0,	H:138,	L:  0, cy: 0,z: 0   110   180 
# time:                 972	,pc:  9	,ACC:  5,	B:  5,	C:  2,	D:  5,	E:  0,	H:138,	L:  0, cy: 0,z: 0   110   180 
# time:                 982	,pc: 10	,ACC:  5,	B:  5,	C:  2,	D:  5,	E:  0,	H:138,	L:  0, cy: 0,z: 0   110   180 
# time:                 992	,pc: 10	,ACC:  5,	B:  5,	C:  2,	D:  5,	E:  0,	H:138,	L:  0, cy: 0,z: 0   110   180 
# time:                1002	,pc:  7	,ACC:  5,	B:  5,	C:  2,	D:  5,	E:  0,	H:138,	L:  0, cy: 0,z: 0   110   180 
# time:                1012	,pc:  8	,ACC:  5,	B:  5,	C:  2,	D:  5,	E:  0,	H:138,	L:  0, cy: 0,z: 0   110   180 
# time:                1022	,pc:  8	,ACC:  5,	B:  5,	C:  2,	D:  5,	E:  0,	H:138,	L:  0, cy: 0,z: 0   110   180 
# time:                1032	,pc:  8	,ACC:  5,	B:  5,	C:  2,	D:  5,	E:  0,	H:138,	L:  0, cy: 0,z: 0   110   180 
# time:                1042	,pc: 13	,ACC:  5,	B:  5,	C:  2,	D:  5,	E:  0,	H:138,	L:  0, cy: 0,z: 0   110   180 
# time:                1052	,pc: 14	,ACC:  5,	B:  5,	C:  2,	D:  5,	E:  0,	H:138,	L:  0, cy: 0,z: 0   110   180 
# time:                1062	,pc: 14	,ACC:  5,	B:  5,	C:  2,	D:  5,	E:  0,	H:138,	L:  0, cy: 0,z: 0   110   180 
# time:                1072	,pc: 14	,ACC:  5,	B:  5,	C:  2,	D:  5,	E:  5,	H:138,	L:  0, cy: 0,z: 0   110   180 
# time:                1082	,pc: 15	,ACC:  5,	B:  5,	C:  2,	D:  5,	E:  5,	H:138,	L:  0, cy: 0,z: 0   110   180 
# time:                1092	,pc: 15	,ACC:  5,	B:  5,	C:  2,	D:  5,	E:  5,	H:138,	L:  0, cy: 0,z: 0   110   180 
# time:                1102	,pc: 15	,ACC:  0,	B:  5,	C:  2,	D:  5,	E:  5,	H:138,	L:  0, cy: 0,z: 0   110   180 
# time:                1112	,pc: 16	,ACC:  0,	B:  5,	C:  2,	D:  5,	E:  5,	H:138,	L:  0, cy: 0,z: 0   110   180 
# time:                1122	,pc: 16	,ACC:  0,	B:  5,	C:  2,	D:  5,	E:  5,	H:138,	L:  0, cy: 0,z: 0   110   180 
# time:                1132	,pc: 16	,ACC:  5,	B:  5,	C:  2,	D:  5,	E:  5,	H:138,	L:  0, cy: 0,z: 0   110   180 
# time:                1142	,pc: 17	,ACC:  5,	B:  5,	C:  2,	D:  5,	E:  5,	H:138,	L:  0, cy: 0,z: 0   110   180 
# time:                1152	,pc: 17	,ACC:  5,	B:  5,	C:  2,	D:  5,	E:  5,	H:138,	L:  0, cy: 0,z: 0   110   180 
# time:                1162	,pc: 17	,ACC:  5,	B:  5,	C:  2,	D:  5,	E:  5,	H:138,	L:  0, cy: 0,z: 0   110   180 
# time:                1172	,pc: 17	,ACC:  5,	B:  5,	C:  2,	D:  5,	E:  4,	H:138,	L:  0, cy: 0,z: 0   110   180 
# time:                1182	,pc: 18	,ACC:  5,	B:  5,	C:  2,	D:  5,	E:  4,	H:138,	L:  0, cy: 0,z: 0   110   180 
# time:                1192	,pc: 18	,ACC:  5,	B:  5,	C:  2,	D:  5,	E:  4,	H:138,	L:  0, cy: 0,z: 0   110   180 
# time:                1202	,pc: 15	,ACC:  5,	B:  5,	C:  2,	D:  5,	E:  4,	H:138,	L:  0, cy: 0,z: 0   110   180 
# time:                1212	,pc: 16	,ACC:  5,	B:  5,	C:  2,	D:  5,	E:  4,	H:138,	L:  0, cy: 0,z: 0   110   180 
# time:                1222	,pc: 16	,ACC:  5,	B:  5,	C:  2,	D:  5,	E:  4,	H:138,	L:  0, cy: 0,z: 0   110   180 
# time:                1232	,pc: 16	,ACC: 10,	B:  5,	C:  2,	D:  5,	E:  4,	H:138,	L:  0, cy: 0,z: 0   110   180 
# time:                1242	,pc: 17	,ACC: 10,	B:  5,	C:  2,	D:  5,	E:  4,	H:138,	L:  0, cy: 0,z: 0   110   180 
# time:                1252	,pc: 17	,ACC: 10,	B:  5,	C:  2,	D:  5,	E:  4,	H:138,	L:  0, cy: 0,z: 0   110   180 
# time:                1262	,pc: 17	,ACC: 10,	B:  5,	C:  2,	D:  5,	E:  4,	H:138,	L:  0, cy: 0,z: 0   110   180 
# time:                1272	,pc: 17	,ACC: 10,	B:  5,	C:  2,	D:  5,	E:  3,	H:138,	L:  0, cy: 0,z: 0   110   180 
# time:                1282	,pc: 18	,ACC: 10,	B:  5,	C:  2,	D:  5,	E:  3,	H:138,	L:  0, cy: 0,z: 0   110   180 
# time:                1292	,pc: 18	,ACC: 10,	B:  5,	C:  2,	D:  5,	E:  3,	H:138,	L:  0, cy: 0,z: 0   110   180 
# time:                1302	,pc: 15	,ACC: 10,	B:  5,	C:  2,	D:  5,	E:  3,	H:138,	L:  0, cy: 0,z: 0   110   180 
# time:                1312	,pc: 16	,ACC: 10,	B:  5,	C:  2,	D:  5,	E:  3,	H:138,	L:  0, cy: 0,z: 0   110   180 
# time:                1322	,pc: 16	,ACC: 10,	B:  5,	C:  2,	D:  5,	E:  3,	H:138,	L:  0, cy: 0,z: 0   110   180 
# time:                1332	,pc: 16	,ACC: 15,	B:  5,	C:  2,	D:  5,	E:  3,	H:138,	L:  0, cy: 0,z: 0   110   180 
# time:                1342	,pc: 17	,ACC: 15,	B:  5,	C:  2,	D:  5,	E:  3,	H:138,	L:  0, cy: 0,z: 0   110   180 
# time:                1352	,pc: 17	,ACC: 15,	B:  5,	C:  2,	D:  5,	E:  3,	H:138,	L:  0, cy: 0,z: 0   110   180 
# time:                1362	,pc: 17	,ACC: 15,	B:  5,	C:  2,	D:  5,	E:  3,	H:138,	L:  0, cy: 0,z: 0   110   180 
# time:                1372	,pc: 17	,ACC: 15,	B:  5,	C:  2,	D:  5,	E:  2,	H:138,	L:  0, cy: 0,z: 0   110   180 
# time:                1382	,pc: 18	,ACC: 15,	B:  5,	C:  2,	D:  5,	E:  2,	H:138,	L:  0, cy: 0,z: 0   110   180 
# time:                1392	,pc: 18	,ACC: 15,	B:  5,	C:  2,	D:  5,	E:  2,	H:138,	L:  0, cy: 0,z: 0   110   180 
# time:                1402	,pc: 15	,ACC: 15,	B:  5,	C:  2,	D:  5,	E:  2,	H:138,	L:  0, cy: 0,z: 0   110   180 
# time:                1412	,pc: 16	,ACC: 15,	B:  5,	C:  2,	D:  5,	E:  2,	H:138,	L:  0, cy: 0,z: 0   110   180 
# time:                1422	,pc: 16	,ACC: 15,	B:  5,	C:  2,	D:  5,	E:  2,	H:138,	L:  0, cy: 0,z: 0   110   180 
# time:                1432	,pc: 16	,ACC: 20,	B:  5,	C:  2,	D:  5,	E:  2,	H:138,	L:  0, cy: 0,z: 0   110   180 
# time:                1442	,pc: 17	,ACC: 20,	B:  5,	C:  2,	D:  5,	E:  2,	H:138,	L:  0, cy: 0,z: 0   110   180 
# time:                1452	,pc: 17	,ACC: 20,	B:  5,	C:  2,	D:  5,	E:  2,	H:138,	L:  0, cy: 0,z: 0   110   180 
# time:                1462	,pc: 17	,ACC: 20,	B:  5,	C:  2,	D:  5,	E:  2,	H:138,	L:  0, cy: 0,z: 0   110   180 
# time:                1472	,pc: 17	,ACC: 20,	B:  5,	C:  2,	D:  5,	E:  1,	H:138,	L:  0, cy: 0,z: 0   110   180 
# time:                1482	,pc: 18	,ACC: 20,	B:  5,	C:  2,	D:  5,	E:  1,	H:138,	L:  0, cy: 0,z: 0   110   180 
# time:                1492	,pc: 18	,ACC: 20,	B:  5,	C:  2,	D:  5,	E:  1,	H:138,	L:  0, cy: 0,z: 0   110   180 
# time:                1502	,pc: 15	,ACC: 20,	B:  5,	C:  2,	D:  5,	E:  1,	H:138,	L:  0, cy: 0,z: 0   110   180 
# time:                1512	,pc: 16	,ACC: 20,	B:  5,	C:  2,	D:  5,	E:  1,	H:138,	L:  0, cy: 0,z: 0   110   180 
# time:                1522	,pc: 16	,ACC: 20,	B:  5,	C:  2,	D:  5,	E:  1,	H:138,	L:  0, cy: 0,z: 0   110   180 
