Code_files/processor_8085_pipeline/simulation/modelsim/msim_transcript
# ERROR: No extended dataflow license exists
# do processor_8085_pipeline_run_msim_rtl_verilog.do
# if {[file exists rtl_work]} {
# 	vdel -lib rtl_work -all
# }
# vlib rtl_work
# vmap work rtl_work
# Model Technology ModelSim - Intel FPGA Edition vmap 10.5b Lib Mapping Utility 2016.10 Oct  5 2016
# vmap work rtl_work 
# Copying /home/alex/intelFPGA/18.1/modelsim_ase/linuxaloem/../modelsim.ini to modelsim.ini
# Modifying modelsim.ini
# 
# vlog -vlog01compat -work work +incdir+/home/alex/verilog_codes/processor_8085_pipeline {/home/alex/verilog_codes/processor_8085_pipeline/adder_8085.v}
# Model Technology ModelSim - Intel FPGA Edition vlog 10.5b Compiler 2016.10 Oct  5 2016
# Start time: 15:22:34 on May 20,2021
# vlog -reportprogress 300 -vlog01compat -work work "+incdir+/home/alex/verilog_codes/processor_8085_pipeline" /home/alex/verilog_codes/processor_8085_pipeline/adder_8085.v 
# -- Compiling module adder_8085
# 
# Top level modules:
# 	adder_8085
# End time: 15:22:34 on May 20,2021, Elapsed time: 0:00:00
# Errors: 0, Warnings: 0
# vlog -vlog01compat -work work +incdir+/home/alex/verilog_codes/processor_8085_pipeline {/home/alex/verilog_codes/processor_8085_pipeline/RF_8085_single.v}
# Model Technology ModelSim - Intel FPGA Edition vlog 10.5b Compiler 2016.10 Oct  5 2016
# Start time: 15:22:34 on May 20,2021
# vlog -reportprogress 300 -vlog01compat -work work "+incdir+/home/alex/verilog_codes/processor_8085_pipeline" /home/alex/verilog_codes/processor_8085_pipeline/RF_8085_single.v 
# -- Compiling module RF_8085_single
# 
# Top level modules:
# 	RF_8085_single
# End time: 15:22:34 on May 20,2021, Elapsed time: 0:00:00
# Errors: 0, Warnings: 0
# vlog -vlog01compat -work work +incdir+/home/alex/verilog_codes/processor_8085_pipeline {/home/alex/verilog_codes/processor_8085_pipeline/flag.v}
# Model Technology ModelSim - Intel FPGA Edition vlog 10.5b Compiler 2016.10 Oct  5 2016
# Start time: 15:22:34 on May 20,2021
# vlog -reportprogress 300 -vlog01compat -work work "+incdir+/home/alex/verilog_codes/processor_8085_pipeline" /home/alex/verilog_codes/processor_8085_pipeline/flag.v 
# -- Compiling module flag
# 
# Top level modules:
# 	flag
# End time: 15:22:34 on May 20,2021, Elapsed time: 0:00:00
# Errors: 0, Warnings: 0
# vlog -vlog01compat -work work +incdir+/home/alex/verilog_codes/processor_8085_pipeline {/home/alex/verilog_codes/processor_8085_pipeline/ALU_8085.v}
# Model Technology ModelSim - Intel FPGA Edition vlog 10.5b Compiler 2016.10 Oct  5 2016
# Start time: 15:22:34 on May 20,2021
# vlog -reportprogress 300 -vlog01compat -work work "+incdir+/home/alex/verilog_codes/processor_8085_pipeline" /home/alex/verilog_codes/processor_8085_pipeline/ALU_8085.v 
# -- Compiling module ALU_8085
# 
# Top level modules:
# 	ALU_8085
# End time: 15:22:34 on May 20,2021, Elapsed time: 0:00:00
# Errors: 0, Warnings: 0
# vlog -vlog01compat -work work +incdir+/home/alex/verilog_codes/processor_8085_pipeline {/home/alex/verilog_codes/processor_8085_pipeline/controller_8085_single.v}
# Model Technology ModelSim - Intel FPGA Edition vlog 10.5b Compiler 2016.10 Oct  5 2016
# Start time: 15:22:34 on May 20,2021
# vlog -reportprogress 300 -vlog01compat -work work "+incdir+/home/alex/verilog_codes/processor_8085_pipeline" /home/alex/verilog_codes/processor_8085_pipeline/controller_8085_single.v 
# -- Compiling module controller_8085_single
# 
# Top level modules:
# 	controller_8085_single
# End time: 15:22:34 on May 20,2021, Elapsed time: 0:00:00
# Errors: 0, Warnings: 0
# vlog -vlog01compat -work work +incdir+/home/alex/verilog_codes/processor_8085_pipeline {/home/alex/verilog_codes/processor_8085_pipeline/ACC_8085.v}
# Model Technology ModelSim - Intel FPGA Edition vlog 10.5b Compiler 2016.10 Oct  5 2016
# Start time: 15:22:34 on May 20,2021
# vlog -reportprogress 300 -vlog01compat -work work "+incdir+/home/alex/verilog_codes/processor_8085_pipeline" /home/alex/verilog_codes/processor_8085_pipeline/ACC_8085.v 
# -- Compiling module ACC_8085
# 
# Top level modules:
# 	ACC_8085
# End time: 15:22:34 on May 20,2021, Elapsed time: 0:00:00
# Errors: 0, Warnings: 0
# vlog -vlog01compat -work work +incdir+/home/alex/verilog_codes/processor_8085_pipeline {/home/alex/verilog_codes/processor_8085_pipeline/alucontrol_8085_single.v}
# Model Technology ModelSim - Intel FPGA Edition vlog 10.5b Compiler 2016.10 Oct  5 2016
# Start time: 15:22:34 on May 20,2021
# vlog -reportprogress 300 -vlog01compat -work work "+incdir+/home/alex/verilog_codes/processor_8085_pipeline" /home/alex/verilog_codes/processor_8085_pipeline/alucontrol_8085_single.v 
# -- Compiling module alucontrol_8085_single
# 
# Top level modules:
# 	alucontrol_8085_single
# End time: 15:22:34 on May 20,2021, Elapsed time: 0:00:00
# Errors: 0, Warnings: 0
# vlog -vlog01compat -work work +incdir+/home/alex/verilog_codes/processor_8085_pipeline {/home/alex/verilog_codes/processor_8085_pipeline/processor_8085_pipeline.v}
# Model Technology ModelSim - Intel FPGA Edition vlog 10.5b Compiler 2016.10 Oct  5 2016
# Start time: 15:22:34 on May 20,2021
# vlog -reportprogress 300 -vlog01compat -work work "+incdir+/home/alex/verilog_codes/processor_8085_pipeline" /home/alex/verilog_codes/processor_8085_pipeline/processor_8085_pipeline.v 
# -- Compiling module processor_8085_pipeline
# 
# Top level modules:
# 	processor_8085_pipeline
# End time: 15:22:34 on May 20,2021, Elapsed time: 0:00:00
# Errors: 0, Warnings: 0
# vlog -vlog01compat -work work +incdir+/home/alex/verilog_codes/processor_8085_pipeline {/home/alex/verilog_codes/processor_8085_pipeline/DM_8085.v}
# Model Technology ModelSim - Intel FPGA Edition vlog 10.5b Compiler 2016.10 Oct  5 2016
# Start time: 15:22:34 on May 20,2021
# vlog -reportprogress 300 -vlog01compat -work work "+incdir+/home/alex/verilog_codes/processor_8085_pipeline" /home/alex/verilog_codes/processor_8085_pipeline/DM_8085.v 
# -- Compiling module DM_8085
# 
# Top level modules:
# 	DM_8085
# End time: 15:22:34 on May 20,2021, Elapsed time: 0:00:00
# Errors: 0, Warnings: 0
# vlog -vlog01compat -work work +incdir+/home/alex/verilog_codes/processor_8085_pipeline {/home/alex/verilog_codes/processor_8085_pipeline/hazard_control_8085.v}
# Model Technology ModelSim - Intel FPGA Edition vlog 10.5b Compiler 2016.10 Oct  5 2016
# Start time: 15:22:34 on May 20,2021
# vlog -reportprogress 300 -vlog01compat -work work "+incdir+/home/alex/verilog_codes/processor_8085_pipeline" /home/alex/verilog_codes/processor_8085_pipeline/hazard_control_8085.v 
# -- Compiling module hazard_control_8085
# 
# Top level modules:
# 	hazard_control_8085
# End time: 15:22:34 on May 20,2021, Elapsed time: 0:00:00
# Errors: 0, Warnings: 0
# vlog -vlog01compat -work work +incdir+/home/alex/verilog_codes/processor_8085_pipeline {/home/alex/verilog_codes/processor_8085_pipeline/IM_8085.v}
# Model Technology ModelSim - Intel FPGA Edition vlog 10.5b Compiler 2016.10 Oct  5 2016
# Start time: 15:22:34 on May 20,2021
# vlog -reportprogress 300 -vlog01compat -work work "+incdir+/home/alex/verilog_codes/processor_8085_pipeline" /home/alex/verilog_codes/processor_8085_pipeline/IM_8085.v 
# -- Compiling module IM_8085
# 
# Top level modules:
# 	IM_8085
# End time: 15:22:34 on May 20,2021, Elapsed time: 0:00:00
# Errors: 0, Warnings: 0
# 
# vlog -vlog01compat -work work +incdir+/home/alex/verilog_codes/processor_8085_pipeline {/home/alex/verilog_codes/processor_8085_pipeline/generic_testbench_pipeline_8085.v}
# Model Technology ModelSim - Intel FPGA Edition vlog 10.5b Compiler 2016.10 Oct  5 2016
# Start time: 15:22:34 on May 20,2021
# vlog -reportprogress 300 -vlog01compat -work work "+incdir+/home/alex/verilog_codes/processor_8085_pipeline" /home/alex/verilog_codes/processor_8085_pipeline/generic_testbench_pipeline_8085.v 
# -- Compiling module generic_testbench_pipeline_8085
# 
# Top level modules:
# 	generic_testbench_pipeline_8085
# End time: 15:22:34 on May 20,2021, Elapsed time: 0:00:00
# Errors: 0, Warnings: 0
# 
# vsim -t 1ps -L altera_ver -L lpm_ver -L sgate_ver -L altera_mf_ver -L altera_lnsim_ver -L cycloneive_ver -L rtl_work -L work -voptargs="+acc"  generic_testbench_pipeline_8085
# vsim -t 1ps -L altera_ver -L lpm_ver -L sgate_ver -L altera_mf_ver -L altera_lnsim_ver -L cycloneive_ver -L rtl_work -L work -voptargs=""+acc"" generic_testbench_pipeline_8085 
# Start time: 15:22:34 on May 20,2021
# Loading work.generic_testbench_pipeline_8085
# Loading work.processor_8085_pipeline
# Loading work.IM_8085
# Loading work.adder_8085
# Loading work.ALU_8085
# Loading work.DM_8085
# Loading work.RF_8085_single
# Loading work.ACC_8085
# Loading work.flag
# Loading work.alucontrol_8085_single
# Loading work.controller_8085_single
# Loading work.hazard_control_8085
# 
# add wave *
# view structure
# .main_pane.structure.interior.cs.body.struct
# view signals
# .main_pane.objects.interior.cs.body.tree
# run -all
# time:                   2	,pc:  0	,ACC:  0,	B:  0,	C:  0,	D:  0,	E:  0,	H:  0,	L:  0 cy: 0, z: 0   110   180 00000 00000 00000 00000 
# time:                  12	,pc:  1	,ACC:  0,	B:  0,	C:  0,	D:  0,	E:  0,	H:  0,	L:  0 cy: 0, z: 0   110   180 00000 00000 00000 00000 
# time:                  22	,pc:  2	,ACC:  0,	B:  0,	C:  0,	D:  0,	E:  0,	H:  0,	L:  0 cy: 0, z: 0   110   180 00000 00000 00000 00000 
# time:                  32	,pc:  3	,ACC:  0,	B:  0,	C:  0,	D:  0,	E:  0,	H:  0,	L:  0 cy: 0, z: 0   110   180 00000 00000 00000 00000 
# time:                  42	,pc:  4	,ACC:  0,	B:  0,	C:  0,	D:  0,	E:  0,	H:  0,	L:  0 cy: 0, z: 1   110   180 00000 00000 00000 00000 
# time:                  52	,pc:  5	,ACC:  0,	B:  0,	C:  0,	D:  0,	E:  0,	H:  9,	L:  0 cy: 0, z: 1   110   180 00000 00000 00000 00000 
# time:                  62	,pc:  6	,ACC:  0,	B:  0,	C:  0,	D:  0,	E:  0,	H:  9,	L:  0 cy: 0, z: 1   110   180 00000 00000 00000 00000 
# time:                  72	,pc:  7	,ACC:  0,	B:  5,	C:  0,	D:  0,	E:  0,	H:  9,	L:  0 cy: 0, z: 1   110   180 00000 00000 00000 00000 
# time:                  82	,pc:  8	,ACC:  0,	B:  5,	C:  0,	D:  0,	E:  0,	H: 10,	L:  0 cy: 0, z: 0   110   180 00000 00000 00000 00000 
# time:                  92	,pc:  9	,ACC:  0,	B:  5,	C:  0,	D:  0,	E:  0,	H: 10,	L:  0 cy: 0, z: 0   110   180 00000 00000 00000 00000 
# time:                 102	,pc: 13	,ACC:  0,	B:  5,	C:  3,	D:  0,	E:  0,	H: 10,	L:  0 cy: 0, z: 0   110   180 70d07 00000 00000 00000 
# time:                 112	,pc: 14	,ACC:  0,	B:  5,	C:  3,	D:  1,	E:  0,	H: 10,	L:  0 cy: 0, z: 0   110   180 70d07 00000 00000 00000 
# time:                 122	,pc: 15	,ACC:  0,	B:  5,	C:  3,	D:  1,	E:  0,	H: 10,	L:  0 cy: 0, z: 0   110   180 70d07 00000 00000 00000 
# time:                 132	,pc: 16	,ACC:  0,	B:  5,	C:  3,	D:  1,	E:  0,	H: 10,	L:  0 cy: 0, z: 0   110   180 70d07 00000 00000 00000 
# time:                 142	,pc: 17	,ACC:  0,	B:  5,	C:  3,	D:  1,	E:  0,	H: 10,	L:  0 cy: 0, z: 0   110   180 70d07 00000 00000 00000 
# time:                 152	,pc: 18	,ACC:  0,	B:  5,	C:  3,	D:  1,	E:  5,	H: 10,	L:  0 cy: 0, z: 0   110   180 70d07 00000 00000 00000 
# time:                 162	,pc: 19	,ACC:  0,	B:  5,	C:  3,	D:  1,	E:  5,	H: 10,	L:  0 cy: 0, z: 0   110   180 70d07 00000 00000 00000 
# time:                 172	,pc: 15	,ACC:  1,	B:  5,	C:  3,	D:  1,	E:  5,	H: 10,	L:  0 cy: 0, z: 0   110   180 70d07 70f11 00000 00000 
# time:                 182	,pc: 16	,ACC:  1,	B:  5,	C:  3,	D:  1,	E:  4,	H: 10,	L:  0 cy: 0, z: 0   110   180 70d07 70f11 00000 00000 
# time:                 192	,pc: 17	,ACC:  1,	B:  5,	C:  3,	D:  1,	E:  4,	H: 10,	L:  0 cy: 0, z: 0   110   180 70d07 70f11 00000 00000 
# time:                 202	,pc: 15	,ACC:  1,	B:  5,	C:  3,	D:  1,	E:  4,	H: 10,	L:  0 cy: 0, z: 0   110   180 70d07 70f11 00000 00000 
# time:                 212	,pc: 16	,ACC:  1,	B:  5,	C:  3,	D:  1,	E:  4,	H: 10,	L:  0 cy: 0, z: 0   110   180 70d07 70f11 00000 00000 
# time:                 222	,pc: 17	,ACC:  2,	B:  5,	C:  3,	D:  1,	E:  4,	H: 10,	L:  0 cy: 0, z: 0   110   180 70d07 70f11 00000 00000 
# time:                 232	,pc: 15	,ACC:  2,	B:  5,	C:  3,	D:  1,	E:  3,	H: 10,	L:  0 cy: 0, z: 0   110   180 70d07 70f11 00000 00000 
# time:                 242	,pc: 16	,ACC:  2,	B:  5,	C:  3,	D:  1,	E:  3,	H: 10,	L:  0 cy: 0, z: 0   110   180 70d07 70f11 00000 00000 
# time:                 252	,pc: 17	,ACC:  3,	B:  5,	C:  3,	D:  1,	E:  3,	H: 10,	L:  0 cy: 0, z: 0   110   180 70d07 70f11 00000 00000 
# time:                 262	,pc: 15	,ACC:  3,	B:  5,	C:  3,	D:  1,	E:  2,	H: 10,	L:  0 cy: 0, z: 0   110   180 70d07 70f11 00000 00000 
# time:                 272	,pc: 16	,ACC:  3,	B:  5,	C:  3,	D:  1,	E:  2,	H: 10,	L:  0 cy: 0, z: 0   110   180 70d07 70f11 00000 00000 
# time:                 282	,pc: 17	,ACC:  4,	B:  5,	C:  3,	D:  1,	E:  2,	H: 10,	L:  0 cy: 0, z: 0   110   180 70d07 70f11 00000 00000 
# time:                 292	,pc: 15	,ACC:  4,	B:  5,	C:  3,	D:  1,	E:  1,	H: 10,	L:  0 cy: 0, z: 0   110   180 70d07 70f11 00000 00000 
# time:                 302	,pc: 16	,ACC:  4,	B:  5,	C:  3,	D:  1,	E:  1,	H: 10,	L:  0 cy: 0, z: 0   110   180 70d07 70f11 00000 00000 
# time:                 312	,pc: 18	,ACC:  5,	B:  5,	C:  3,	D:  1,	E:  1,	H: 10,	L:  0 cy: 0, z: 0   110   180 70d07 60f11 00000 00000 
# time:                 322	,pc: 19	,ACC:  5,	B:  5,	C:  3,	D:  1,	E:  0,	H: 10,	L:  0 cy: 0, z: 1   110   180 70d07 60f11 00000 00000 
# time:                 332	,pc: 20	,ACC:  5,	B:  5,	C:  3,	D:  1,	E:  0,	H: 10,	L:  0 cy: 0, z: 1   110   180 70d07 60f11 00000 00000 
# time:                 342	,pc: 21	,ACC:  5,	B:  5,	C:  3,	D:  1,	E:  0,	H: 10,	L:  0 cy: 0, z: 1   110   180 70d07 60f11 00000 00000 
# time:                 352	,pc:  8	,ACC:  5,	B:  5,	C:  3,	D:  1,	E:  0,	H: 10,	L:  0 cy: 0, z: 1   110   180 70d07 60f11 70813 00000 
# time:                 362	,pc:  9	,ACC:  5,	B:  5,	C:  3,	D:  5,	E:  0,	H: 10,	L:  0 cy: 0, z: 1   110   180 70d07 60f11 70813 00000 
# time:                 372	,pc: 10	,ACC:  5,	B:  5,	C:  3,	D:  5,	E:  0,	H: 10,	L:  0 cy: 0, z: 1   110   180 70d07 60f11 70813 00000 
# time:                 382	,pc: 11	,ACC:  5,	B:  5,	C:  3,	D:  5,	E:  0,	H: 10,	L:  0 cy: 0, z: 1   110   180 70d07 60f11 70813 00000 
# time:                 392	,pc:  7	,ACC:  5,	B:  5,	C:  3,	D:  5,	E:  0,	H: 10,	L:  0 cy: 0, z: 1   110   180 70d07 60f11 70813 70709 
# time:                 402	,pc: 13	,ACC:  5,	B:  5,	C:  2,	D:  5,	E:  0,	H: 10,	L:  0 cy: 0, z: 0   110   180 70d07 60f11 70813 70709 
# time:                 412	,pc: 14	,ACC:  5,	B:  5,	C:  2,	D:  5,	E:  0,	H: 10,	L:  0 cy: 0, z: 0   110   180 70d07 60f11 70813 70709 
# time:                 422	,pc: 15	,ACC:  5,	B:  5,	C:  2,	D:  5,	E:  0,	H: 10,	L:  0 cy: 0, z: 0   110   180 70d07 60f11 70813 70709 
# time:                 432	,pc: 16	,ACC:  5,	B:  5,	C:  2,	D:  5,	E:  0,	H: 10,	L:  0 cy: 0, z: 0   110   180 70d07 60f11 70813 70709 
# time:                 442	,pc: 17	,ACC:  5,	B:  5,	C:  2,	D:  5,	E:  0,	H: 10,	L:  0 cy: 0, z: 0   110   180 70d07 60f11 70813 70709 
# time:                 452	,pc: 15	,ACC:  5,	B:  5,	C:  2,	D:  5,	E:  5,	H: 10,	L:  0 cy: 0, z: 0   110   180 70d07 60f11 70813 70709 
# time:                 462	,pc: 16	,ACC:  0,	B:  5,	C:  2,	D:  5,	E:  5,	H: 10,	L:  0 cy: 0, z: 0   110   180 70d07 60f11 70813 70709 
# time:                 472	,pc: 17	,ACC:  5,	B:  5,	C:  2,	D:  5,	E:  5,	H: 10,	L:  0 cy: 0, z: 0   110   180 70d07 70f11 70813 70709 
# time:                 482	,pc: 15	,ACC:  5,	B:  5,	C:  2,	D:  5,	E:  4,	H: 10,	L:  0 cy: 0, z: 0   110   180 70d07 70f11 70813 70709 
# time:                 492	,pc: 16	,ACC:  5,	B:  5,	C:  2,	D:  5,	E:  4,	H: 10,	L:  0 cy: 0, z: 0   110   180 70d07 70f11 70813 70709 
# time:                 502	,pc: 17	,ACC: 10,	B:  5,	C:  2,	D:  5,	E:  4,	H: 10,	L:  0 cy: 0, z: 0   110   180 70d07 70f11 70813 70709 
# time:                 512	,pc: 15	,ACC: 10,	B:  5,	C:  2,	D:  5,	E:  3,	H: 10,	L:  0 cy: 0, z: 0   110   180 70d07 70f11 70813 70709 
# time:                 522	,pc: 16	,ACC: 10,	B:  5,	C:  2,	D:  5,	E:  3,	H: 10,	L:  0 cy: 0, z: 0   110   180 70d07 70f11 70813 70709 
# time:                 532	,pc: 17	,ACC: 15,	B:  5,	C:  2,	D:  5,	E:  3,	H: 10,	L:  0 cy: 0, z: 0   110   180 70d07 70f11 70813 70709 
# time:                 542	,pc: 15	,ACC: 15,	B:  5,	C:  2,	D:  5,	E:  2,	H: 10,	L:  0 cy: 0, z: 0   110   180 70d07 70f11 70813 70709 
# time:                 552	,pc: 16	,ACC: 15,	B:  5,	C:  2,	D:  5,	E:  2,	H: 10,	L:  0 cy: 0, z: 0   110   180 70d07 70f11 70813 70709 
# time:                 562	,pc: 17	,ACC: 20,	B:  5,	C:  2,	D:  5,	E:  2,	H: 10,	L:  0 cy: 0, z: 0   110   180 70d07 70f11 70813 70709 
# time:                 572	,pc: 15	,ACC: 20,	B:  5,	C:  2,	D:  5,	E:  1,	H: 10,	L:  0 cy: 0, z: 0   110   180 70d07 70f11 70813 70709 
# time:                 582	,pc: 16	,ACC: 20,	B:  5,	C:  2,	D:  5,	E:  1,	H: 10,	L:  0 cy: 0, z: 0   110   180 70d07 70f11 70813 70709 
# time:                 592	,pc: 18	,ACC: 25,	B:  5,	C:  2,	D:  5,	E:  1,	H: 10,	L:  0 cy: 0, z: 0   110   180 70d07 60f11 70813 70709 
# time:                 602	,pc: 19	,ACC: 25,	B:  5,	C:  2,	D:  5,	E:  0,	H: 10,	L:  0 cy: 0, z: 1   110   180 70d07 60f11 70813 70709 
# time:                 612	,pc:  8	,ACC: 25,	B:  5,	C:  2,	D:  5,	E:  0,	H: 10,	L:  0 cy: 0, z: 1   110   180 70d07 60f11 70813 70709 
# time:                 622	,pc:  9	,ACC: 25,	B:  5,	C:  2,	D:  5,	E:  0,	H: 10,	L:  0 cy: 0, z: 1   110   180 70d07 60f11 70813 70709 
# time:                 632	,pc:  7	,ACC: 25,	B:  5,	C:  2,	D:  5,	E:  0,	H: 10,	L:  0 cy: 0, z: 1   110   180 70d07 60f11 70813 70709 
# time:                 642	,pc: 13	,ACC: 25,	B:  5,	C:  2,	D: 25,	E:  0,	H: 10,	L:  0 cy: 0, z: 1   110   180 70d07 60f11 70813 70709 
# time:                 652	,pc: 14	,ACC: 25,	B:  5,	C:  2,	D: 25,	E:  0,	H: 10,	L:  0 cy: 0, z: 1   110   180 70d07 60f11 70813 70709 
# time:                 662	,pc: 15	,ACC: 25,	B:  5,	C:  1,	D: 25,	E:  0,	H: 10,	L:  0 cy: 0, z: 0   110   180 70d07 60f11 70813 70709 
# time:                 672	,pc: 16	,ACC: 25,	B:  5,	C:  1,	D: 25,	E:  0,	H: 10,	L:  0 cy: 0, z: 0   110   180 70d07 60f11 70813 70709 
# time:                 682	,pc: 17	,ACC: 25,	B:  5,	C:  1,	D: 25,	E:  0,	H: 10,	L:  0 cy: 0, z: 0   110   180 70d07 60f11 70813 70709 
# time:                 692	,pc: 15	,ACC: 25,	B:  5,	C:  1,	D: 25,	E:  5,	H: 10,	L:  0 cy: 0, z: 0   110   180 70d07 60f11 70813 70709 
# time:                 702	,pc: 16	,ACC:  0,	B:  5,	C:  1,	D: 25,	E:  5,	H: 10,	L:  0 cy: 0, z: 0   110   180 70d07 60f11 70813 70709 
# time:                 712	,pc: 17	,ACC: 25,	B:  5,	C:  1,	D: 25,	E:  5,	H: 10,	L:  0 cy: 0, z: 0   110   180 70d07 70f11 70813 70709 
# time:                 722	,pc: 15	,ACC: 25,	B:  5,	C:  1,	D: 25,	E:  4,	H: 10,	L:  0 cy: 0, z: 0   110   180 70d07 70f11 70813 70709 
# time:                 732	,pc: 16	,ACC: 25,	B:  5,	C:  1,	D: 25,	E:  4,	H: 10,	L:  0 cy: 0, z: 0   110   180 70d07 70f11 70813 70709 
# time:                 742	,pc: 17	,ACC: 50,	B:  5,	C:  1,	D: 25,	E:  4,	H: 10,	L:  0 cy: 0, z: 0   110   180 70d07 70f11 70813 70709 
# time:                 752	,pc: 15	,ACC: 50,	B:  5,	C:  1,	D: 25,	E:  3,	H: 10,	L:  0 cy: 0, z: 0   110   180 70d07 70f11 70813 70709 
# time:                 762	,pc: 16	,ACC: 50,	B:  5,	C:  1,	D: 25,	E:  3,	H: 10,	L:  0 cy: 0, z: 0   110   180 70d07 70f11 70813 70709 
# time:                 772	,pc: 17	,ACC: 75,	B:  5,	C:  1,	D: 25,	E:  3,	H: 10,	L:  0 cy: 0, z: 0   110   180 70d07 70f11 70813 70709 
# time:                 782	,pc: 15	,ACC: 75,	B:  5,	C:  1,	D: 25,	E:  2,	H: 10,	L:  0 cy: 0, z: 0   110   180 70d07 70f11 70813 70709 
# time:                 792	,pc: 16	,ACC: 75,	B:  5,	C:  1,	D: 25,	E:  2,	H: 10,	L:  0 cy: 0, z: 0   110   180 70d07 70f11 70813 70709 
# time:                 802	,pc: 17	,ACC:100,	B:  5,	C:  1,	D: 25,	E:  2,	H: 10,	L:  0 cy: 0, z: 0   110   180 70d07 70f11 70813 70709 
# time:                 812	,pc: 15	,ACC:100,	B:  5,	C:  1,	D: 25,	E:  1,	H: 10,	L:  0 cy: 0, z: 0   110   180 70d07 70f11 70813 70709 
# time:                 822	,pc: 16	,ACC:100,	B:  5,	C:  1,	D: 25,	E:  1,	H: 10,	L:  0 cy: 0, z: 0   110   180 70d07 70f11 70813 70709 
# time:                 832	,pc: 18	,ACC:125,	B:  5,	C:  1,	D: 25,	E:  1,	H: 10,	L:  0 cy: 0, z: 0   110   180 70d07 60f11 70813 70709 
# time:                 842	,pc: 19	,ACC:125,	B:  5,	C:  1,	D: 25,	E:  0,	H: 10,	L:  0 cy: 0, z: 1   110   180 70d07 60f11 70813 70709 
# time:                 852	,pc:  8	,ACC:125,	B:  5,	C:  1,	D: 25,	E:  0,	H: 10,	L:  0 cy: 0, z: 1   110   180 70d07 60f11 70813 70709 
# time:                 862	,pc:  9	,ACC:125,	B:  5,	C:  1,	D: 25,	E:  0,	H: 10,	L:  0 cy: 0, z: 1   110   180 70d07 60f11 70813 70709 
# time:                 872	,pc:  7	,ACC:125,	B:  5,	C:  1,	D: 25,	E:  0,	H: 10,	L:  0 cy: 0, z: 1   110   180 70d07 60f11 70813 70709 
# time:                 882	,pc: 13	,ACC:125,	B:  5,	C:  1,	D:125,	E:  0,	H: 10,	L:  0 cy: 0, z: 1   110   180 70d07 60f11 70813 70709 
# time:                 892	,pc: 10	,ACC:125,	B:  5,	C:  1,	D:125,	E:  0,	H: 10,	L:  0 cy: 0, z: 1   110   180 70d07 60f11 70813 60709 
# time:                 902	,pc: 11	,ACC:125,	B:  5,	C:  0,	D:125,	E:  0,	H: 10,	L:  0 cy: 0, z: 1   110   180 70d07 60f11 70813 60709 
# time:                 912	,pc: 12	,ACC:125,	B:  5,	C:  0,	D:125,	E:  0,	H: 10,	L:  0 cy: 0, z: 1   110   180 70d07 60f11 70813 60709 
# time:                 922	,pc: 13	,ACC:125,	B:  5,	C:  0,	D:125,	E:  0,	H: 10,	L:  0 cy: 0, z: 1   110   180 70d07 60f11 70813 60709 
# time:                 932	,pc: 14	,ACC:125,	B:  5,	C:  0,	D:125,	E:  0,	H: 10,	L:  0 cy: 0, z: 1   110   180 70d07 60f11 70813 60709 
# time:                 942	,pc: 14	,ACC:125,	B:  5,	C:  0,	D:125,	E:  0,	H: 11,	L:  0 cy: 0, z: 0   125   180 70d07 60f11 70813 60709 
# time:                 952	,pc: 14	,ACC:125,	B:  5,	C:  0,	D:125,	E:  0,	H: 11,	L:  0 cy: 0, z: 0   125   180 70d07 60f11 70813 60709 
# time:                 962	,pc: 14	,ACC:125,	B:  5,	C:  0,	D:125,	E:  0,	H: 11,	L:  0 cy: 0, z: 0   125   180 70d07 60f11 70813 60709 
# time:                 972	,pc: 14	,ACC:125,	B:  5,	C:  0,	D:125,	E:  0,	H: 11,	L:  0 cy: 0, z: 0   125   180 70d07 60f11 70813 60709 
# time:                 982	,pc: 14	,ACC:125,	B:  5,	C:  0,	D:125,	E:  0,	H: 11,	L:  0 cy: 0, z: 0   125   180 70d07 60f11 70813 60709 
# time:                 992	,pc: 14	,ACC:125,	B:  5,	C:  0,	D:125,	E:  0,	H: 11,	L:  0 cy: 0, z: 0   125   180 70d07 60f11 70813 60709 
# time:                1002	,pc: 14	,ACC:125,	B:  5,	C:  0,	D:125,	E:  0,	H: 11,	L:  0 cy: 0, z: 0   125   180 70d07 60f11 70813 60709 
# time:                1012	,pc: 14	,ACC:125,	B:  5,	C:  0,	D:125,	E:  0,	H: 11,	L:  0 cy: 0, z: 0   125   180 70d07 60f11 70813 60709 
# time:                1022	,pc: 14	,ACC:125,	B:  5,	C:  0,	D:125,	E:  0,	H: 11,	L:  0 cy: 0, z: 0   125   180 70d07 60f11 70813 60709 
# time:                1032	,pc: 14	,ACC:125,	B:  5,	C:  0,	D:125,	E:  0,	H: 11,	L:  0 cy: 0, z: 0   125   180 70d07 60f11 70813 60709 
# time:                1042	,pc: 14	,ACC:125,	B:  5,	C:  0,	D:125,	E:  0,	H: 11,	L:  0 cy: 0, z: 0   125   180 70d07 60f11 70813 60709 
# time:                1052	,pc: 14	,ACC:125,	B:  5,	C:  0,	D:125,	E:  0,	H: 11,	L:  0 cy: 0, z: 0   125   180 70d07 60f11 70813 60709 
# time:                1062	,pc: 14	,ACC:125,	B:  5,	C:  0,	D:125,	E:  0,	H: 11,	L:  0 cy: 0, z: 0   125   180 70d07 60f11 70813 60709 
# time:                1072	,pc: 14	,ACC:125,	B:  5,	C:  0,	D:125,	E:  0,	H: 11,	L:  0 cy: 0, z: 0   125   180 70d07 60f11 70813 60709 
# time:                1082	,pc: 14	,ACC:125,	B:  5,	C:  0,	D:125,	E:  0,	H: 11,	L:  0 cy: 0, z: 0   125   180 70d07 60f11 70813 60709 
# time:                1092	,pc: 14	,ACC:125,	B:  5,	C:  0,	D:125,	E:  0,	H: 11,	L:  0 cy: 0, z: 0   125   180 70d07 60f11 70813 60709 
# time:                1102	,pc: 14	,ACC:125,	B:  5,	C:  0,	D:125,	E:  0,	H: 11,	L:  0 cy: 0, z: 0   125   180 70d07 60f11 70813 60709 
# time:                1112	,pc: 14	,ACC:125,	B:  5,	C:  0,	D:125,	E:  0,	H: 11,	L:  0 cy: 0, z: 0   125   180 70d07 60f11 70813 60709 
# time:                1122	,pc: 14	,ACC:125,	B:  5,	C:  0,	D:125,	E:  0,	H: 11,	L:  0 cy: 0, z: 0   125   180 70d07 60f11 70813 60709 
# time:                1132	,pc: 14	,ACC:125,	B:  5,	C:  0,	D:125,	E:  0,	H: 11,	L:  0 cy: 0, z: 0   125   180 70d07 60f11 70813 60709 
# time:                1142	,pc: 14	,ACC:125,	B:  5,	C:  0,	D:125,	E:  0,	H: 11,	L:  0 cy: 0, z: 0   125   180 70d07 60f11 70813 60709 
# time:                1152	,pc: 14	,ACC:125,	B:  5,	C:  0,	D:125,	E:  0,	H: 11,	L:  0 cy: 0, z: 0   125   180 70d07 60f11 70813 60709 
# time:                1162	,pc: 14	,ACC:125,	B:  5,	C:  0,	D:125,	E:  0,	H: 11,	L:  0 cy: 0, z: 0   125   180 70d07 60f11 70813 60709 
# time:                1172	,pc: 14	,ACC:125,	B:  5,	C:  0,	D:125,	E:  0,	H: 11,	L:  0 cy: 0, z: 0   125   180 70d07 60f11 70813 60709 
# time:                1182	,pc: 14	,ACC:125,	B:  5,	C:  0,	D:125,	E:  0,	H: 11,	L:  0 cy: 0, z: 0   125   180 70d07 60f11 70813 60709 
