Code_files/processor_8085_single/simulation/modelsim/msim_transcript
# ERROR: No extended dataflow license exists
# do processor_8085_single_run_msim_rtl_verilog.do
# if {[file exists rtl_work]} {
# 	vdel -lib rtl_work -all
# }
# vlib rtl_work
# vmap work rtl_work
# Model Technology ModelSim - Intel FPGA Edition vmap 10.5b Lib Mapping Utility 2016.10 Oct  5 2016
# vmap work rtl_work 
# Copying /home/alex/intelFPGA/18.1/modelsim_ase/linuxaloem/../modelsim.ini to modelsim.ini
# Modifying modelsim.ini
# 
# vlog -vlog01compat -work work +incdir+/home/alex/verilog_codes/processor_8085_single {/home/alex/verilog_codes/processor_8085_single/flag.v}
# Model Technology ModelSim - Intel FPGA Edition vlog 10.5b Compiler 2016.10 Oct  5 2016
# Start time: 15:05:38 on May 20,2021
# vlog -reportprogress 300 -vlog01compat -work work "+incdir+/home/alex/verilog_codes/processor_8085_single" /home/alex/verilog_codes/processor_8085_single/flag.v 
# -- Compiling module flag
# 
# Top level modules:
# 	flag
# End time: 15:05:38 on May 20,2021, Elapsed time: 0:00:00
# Errors: 0, Warnings: 0
# vlog -vlog01compat -work work +incdir+/home/alex/verilog_codes/processor_8085_single {/home/alex/verilog_codes/processor_8085_single/ALU_8085.v}
# Model Technology ModelSim - Intel FPGA Edition vlog 10.5b Compiler 2016.10 Oct  5 2016
# Start time: 15:05:38 on May 20,2021
# vlog -reportprogress 300 -vlog01compat -work work "+incdir+/home/alex/verilog_codes/processor_8085_single" /home/alex/verilog_codes/processor_8085_single/ALU_8085.v 
# -- Compiling module ALU_8085
# 
# Top level modules:
# 	ALU_8085
# End time: 15:05:39 on May 20,2021, Elapsed time: 0:00:01
# Errors: 0, Warnings: 0
# vlog -vlog01compat -work work +incdir+/home/alex/verilog_codes/processor_8085_single {/home/alex/verilog_codes/processor_8085_single/alucontrol_8085_single.v}
# Model Technology ModelSim - Intel FPGA Edition vlog 10.5b Compiler 2016.10 Oct  5 2016
# Start time: 15:05:39 on May 20,2021
# vlog -reportprogress 300 -vlog01compat -work work "+incdir+/home/alex/verilog_codes/processor_8085_single" /home/alex/verilog_codes/processor_8085_single/alucontrol_8085_single.v 
# -- Compiling module alucontrol_8085_single
# 
# Top level modules:
# 	alucontrol_8085_single
# End time: 15:05:39 on May 20,2021, Elapsed time: 0:00:00
# Errors: 0, Warnings: 0
# vlog -vlog01compat -work work +incdir+/home/alex/verilog_codes/processor_8085_single {/home/alex/verilog_codes/processor_8085_single/processor_8085_single.v}
# Model Technology ModelSim - Intel FPGA Edition vlog 10.5b Compiler 2016.10 Oct  5 2016
# Start time: 15:05:39 on May 20,2021
# vlog -reportprogress 300 -vlog01compat -work work "+incdir+/home/alex/verilog_codes/processor_8085_single" /home/alex/verilog_codes/processor_8085_single/processor_8085_single.v 
# -- Compiling module processor_8085_single
# 
# Top level modules:
# 	processor_8085_single
# End time: 15:05:39 on May 20,2021, Elapsed time: 0:00:00
# Errors: 0, Warnings: 0
# vlog -vlog01compat -work work +incdir+/home/alex/verilog_codes/processor_8085_single {/home/alex/verilog_codes/processor_8085_single/RF_8085_single.v}
# Model Technology ModelSim - Intel FPGA Edition vlog 10.5b Compiler 2016.10 Oct  5 2016
# Start time: 15:05:39 on May 20,2021
# vlog -reportprogress 300 -vlog01compat -work work "+incdir+/home/alex/verilog_codes/processor_8085_single" /home/alex/verilog_codes/processor_8085_single/RF_8085_single.v 
# -- Compiling module RF_8085_single
# 
# Top level modules:
# 	RF_8085_single
# End time: 15:05:39 on May 20,2021, Elapsed time: 0:00:00
# Errors: 0, Warnings: 0
# vlog -vlog01compat -work work +incdir+/home/alex/verilog_codes/processor_8085_single {/home/alex/verilog_codes/processor_8085_single/adder_8085.v}
# Model Technology ModelSim - Intel FPGA Edition vlog 10.5b Compiler 2016.10 Oct  5 2016
# Start time: 15:05:39 on May 20,2021
# vlog -reportprogress 300 -vlog01compat -work work "+incdir+/home/alex/verilog_codes/processor_8085_single" /home/alex/verilog_codes/processor_8085_single/adder_8085.v 
# -- Compiling module adder_8085
# 
# Top level modules:
# 	adder_8085
# End time: 15:05:39 on May 20,2021, Elapsed time: 0:00:00
# Errors: 0, Warnings: 0
# vlog -vlog01compat -work work +incdir+/home/alex/verilog_codes/processor_8085_single {/home/alex/verilog_codes/processor_8085_single/DM_8085.v}
# Model Technology ModelSim - Intel FPGA Edition vlog 10.5b Compiler 2016.10 Oct  5 2016
# Start time: 15:05:39 on May 20,2021
# vlog -reportprogress 300 -vlog01compat -work work "+incdir+/home/alex/verilog_codes/processor_8085_single" /home/alex/verilog_codes/processor_8085_single/DM_8085.v 
# -- Compiling module DM_8085
# 
# Top level modules:
# 	DM_8085
# End time: 15:05:39 on May 20,2021, Elapsed time: 0:00:00
# Errors: 0, Warnings: 0
# vlog -vlog01compat -work work +incdir+/home/alex/verilog_codes/processor_8085_single {/home/alex/verilog_codes/processor_8085_single/ACC_8085.v}
# Model Technology ModelSim - Intel FPGA Edition vlog 10.5b Compiler 2016.10 Oct  5 2016
# Start time: 15:05:39 on May 20,2021
# vlog -reportprogress 300 -vlog01compat -work work "+incdir+/home/alex/verilog_codes/processor_8085_single" /home/alex/verilog_codes/processor_8085_single/ACC_8085.v 
# -- Compiling module ACC_8085
# 
# Top level modules:
# 	ACC_8085
# End time: 15:05:39 on May 20,2021, Elapsed time: 0:00:00
# Errors: 0, Warnings: 0
# vlog -vlog01compat -work work +incdir+/home/alex/verilog_codes/processor_8085_single {/home/alex/verilog_codes/processor_8085_single/controller_8085_single.v}
# Model Technology ModelSim - Intel FPGA Edition vlog 10.5b Compiler 2016.10 Oct  5 2016
# Start time: 15:05:39 on May 20,2021
# vlog -reportprogress 300 -vlog01compat -work work "+incdir+/home/alex/verilog_codes/processor_8085_single" /home/alex/verilog_codes/processor_8085_single/controller_8085_single.v 
# -- Compiling module controller_8085_single
# 
# Top level modules:
# 	controller_8085_single
# End time: 15:05:39 on May 20,2021, Elapsed time: 0:00:00
# Errors: 0, Warnings: 0
# vlog -vlog01compat -work work +incdir+/home/alex/verilog_codes/processor_8085_single/db {/home/alex/verilog_codes/processor_8085_single/db/pll_8085_altpll.v}
# Model Technology ModelSim - Intel FPGA Edition vlog 10.5b Compiler 2016.10 Oct  5 2016
# Start time: 15:05:39 on May 20,2021
# vlog -reportprogress 300 -vlog01compat -work work "+incdir+/home/alex/verilog_codes/processor_8085_single/db" /home/alex/verilog_codes/processor_8085_single/db/pll_8085_altpll.v 
# -- Compiling module pll_8085_altpll
# 
# Top level modules:
# 	pll_8085_altpll
# End time: 15:05:39 on May 20,2021, Elapsed time: 0:00:00
# Errors: 0, Warnings: 0
# vlog -vlog01compat -work work +incdir+/home/alex/verilog_codes/processor_8085_single {/home/alex/verilog_codes/processor_8085_single/IM_8085.v}
# Model Technology ModelSim - Intel FPGA Edition vlog 10.5b Compiler 2016.10 Oct  5 2016
# Start time: 15:05:39 on May 20,2021
# vlog -reportprogress 300 -vlog01compat -work work "+incdir+/home/alex/verilog_codes/processor_8085_single" /home/alex/verilog_codes/processor_8085_single/IM_8085.v 
# -- Compiling module IM_8085
# 
# Top level modules:
# 	IM_8085
# End time: 15:05:39 on May 20,2021, Elapsed time: 0:00:00
# Errors: 0, Warnings: 0
# vcom -93 -work work {/home/alex/verilog_codes/processor_8085_single/pll_8085.vhd}
# Model Technology ModelSim - Intel FPGA Edition vcom 10.5b Compiler 2016.10 Oct  5 2016
# Start time: 15:05:39 on May 20,2021
# vcom -reportprogress 300 -93 -work work /home/alex/verilog_codes/processor_8085_single/pll_8085.vhd 
# -- Loading package STANDARD
# -- Loading package TEXTIO
# -- Loading package std_logic_1164
# -- Compiling entity pll_8085
# -- Compiling architecture SYN of pll_8085
# End time: 15:05:39 on May 20,2021, Elapsed time: 0:00:00
# Errors: 0, Warnings: 0
# 
# vlog -vlog01compat -work work +incdir+/home/alex/verilog_codes/processor_8085_single {/home/alex/verilog_codes/processor_8085_single/generic_testbench_single_8085.v}
# Model Technology ModelSim - Intel FPGA Edition vlog 10.5b Compiler 2016.10 Oct  5 2016
# Start time: 15:05:39 on May 20,2021
# vlog -reportprogress 300 -vlog01compat -work work "+incdir+/home/alex/verilog_codes/processor_8085_single" /home/alex/verilog_codes/processor_8085_single/generic_testbench_single_8085.v 
# -- Compiling module generic_testbench_single_8085
# 
# Top level modules:
# 	generic_testbench_single_8085
# End time: 15:05:40 on May 20,2021, Elapsed time: 0:00:01
# Errors: 0, Warnings: 0
# 
# vsim -t 1ps -L altera_ver -L lpm_ver -L sgate_ver -L altera_mf_ver -L altera_lnsim_ver -L cycloneive_ver -L rtl_work -L work -voptargs="+acc"  generic_testbench_single_8085
# vsim -t 1ps -L altera_ver -L lpm_ver -L sgate_ver -L altera_mf_ver -L altera_lnsim_ver -L cycloneive_ver -L rtl_work -L work -voptargs=""+acc"" generic_testbench_single_8085 
# Start time: 15:05:40 on May 20,2021
# Loading work.generic_testbench_single_8085
# Loading work.processor_8085_single
# Loading work.IM_8085
# Loading work.adder_8085
# Loading work.ALU_8085
# Loading work.DM_8085
# Loading work.RF_8085_single
# Loading work.ACC_8085
# Loading work.flag
# Loading work.alucontrol_8085_single
# Loading work.controller_8085_single
# Loading std.standard
# Loading std.textio(body)
# Loading ieee.std_logic_1164(body)
# Loading work.pll_8085(syn)
# Loading altera_mf.altera_device_families(body)
# Loading altera_mf.mf_pllpack(body)
# Loading ieee.std_logic_arith(body)
# Loading ieee.std_logic_unsigned(body)
# Loading altera_mf.altpll(behavior)
# Loading altera_mf.mf_cycloneiii_pll(vital_pll)
# Loading altera_mf.mf_cda_mn_cntr(behave)
# Loading altera_mf.mf_cda_scale_cntr(behave)
# ** Warning: Design size of 12968 statements exceeds ModelSim-Intel FPGA Starter Edition recommended capacity.
# Expect performance to be adversely affected.
# 
# add wave *
# view structure
# .main_pane.structure.interior.cs.body.struct
# view signals
# .main_pane.objects.interior.cs.body.tree
# run -all
# time:                   2	,pc:  0	,ACC:  0,	B:  0,	C:  0,	D:  0,	E:  0,	H:  0,	L:  0, cy: 0, z: 0, DM[11]:   110, DM[18]:   180
# time:                  42	,pc:  0	,ACC:  0,	B:  0,	C:  0,	D:  0,	E:  0,	H:  0,	L:  0, cy: 0, z: 0, DM[11]:   110, DM[18]:   180
# ** Note: Cyclone IV E PLL locked to incoming clock
#    Time: 55 ns  Iteration: 3  Instance: /generic_testbench_single_8085/p1/pll/altpll_component/CYCLONEIII_ALTPLL/M5
# time:                  82	,pc:  1	,ACC:  0,	B:  0,	C:  8,	D:  0,	E:  0,	H:  0,	L:  0, cy: 0, z: 0, DM[11]:   110, DM[18]:   180
# time:                 122	,pc:  2	,ACC:  0,	B:  0,	C:  7,	D:  0,	E:  0,	H:  0,	L:  0, cy: 0, z: 0, DM[11]:   110, DM[18]:   180
# time:                 162	,pc:  3	,ACC:  0,	B:  0,	C:  7,	D:  7,	E:  0,	H:  0,	L:  0, cy: 0, z: 0, DM[11]:   110, DM[18]:   180
# time:                 202	,pc:  4	,ACC:  0,	B:  0,	C:  7,	D:  7,	E:  0,	H: 11,	L:  0, cy: 0, z: 0, DM[11]:   110, DM[18]:   180
# time:                 242	,pc:  5	,ACC:110,	B:  0,	C:  7,	D:  7,	E:  0,	H: 11,	L:  0, cy: 0, z: 0, DM[11]:   110, DM[18]:   180
# time:                 282	,pc:  6	,ACC:110,	B:  0,	C:  7,	D:  7,	E:  0,	H: 12,	L:  0, cy: 0, z: 0, DM[11]:   110, DM[18]:   180
# time:                 322	,pc:  7	,ACC:110,	B:  0,	C:  7,	D:  7,	E:  0,	H: 12,	L:  0, cy: 1, z: 0, DM[11]:   110, DM[18]:   180
# time:                 362	,pc:  8	,ACC:110,	B:  0,	C:  7,	D:  7,	E:  0,	H: 12,	L:  0, cy: 1, z: 0, DM[11]:   110, DM[18]:   180
# time:                 402	,pc:  9	,ACC:110,	B:120,	C:  7,	D:  7,	E:  0,	H: 12,	L:  0, cy: 1, z: 0, DM[11]:   110, DM[18]:   180
# time:                 442	,pc: 10	,ACC:110,	B:120,	C:  7,	D:  7,	E:  0,	H: 12,	L:  0, cy: 1, z: 0, DM[11]:   110, DM[18]:   180
# time:                 482	,pc: 11	,ACC:110,	B:120,	C:  7,	D:  7,	E:  0,	H: 11,	L:  0, cy: 1, z: 0, DM[11]:   110, DM[18]:   180
# time:                 522	,pc: 12	,ACC:110,	B:120,	C:  7,	D:  7,	E:  0,	H: 11,	L:  0, cy: 1, z: 0, DM[11]:   120, DM[18]:   180
# time:                 562	,pc: 13	,ACC:110,	B:120,	C:  7,	D:  7,	E:  0,	H: 12,	L:  0, cy: 1, z: 0, DM[11]:   120, DM[18]:   180
# time:                 602	,pc: 14	,ACC:110,	B:120,	C:  7,	D:  6,	E:  0,	H: 12,	L:  0, cy: 1, z: 0, DM[11]:   120, DM[18]:   180
# time:                 642	,pc:  4	,ACC:110,	B:120,	C:  7,	D:  6,	E:  0,	H: 12,	L:  0, cy: 1, z: 0, DM[11]:   120, DM[18]:   180
# time:                 682	,pc:  5	,ACC:110,	B:120,	C:  7,	D:  6,	E:  0,	H: 12,	L:  0, cy: 1, z: 0, DM[11]:   120, DM[18]:   180
# time:                 722	,pc:  6	,ACC:110,	B:120,	C:  7,	D:  6,	E:  0,	H: 13,	L:  0, cy: 1, z: 0, DM[11]:   120, DM[18]:   180
# time:                 762	,pc:  7	,ACC:110,	B:120,	C:  7,	D:  6,	E:  0,	H: 13,	L:  0, cy: 1, z: 0, DM[11]:   120, DM[18]:   180
# time:                 802	,pc:  8	,ACC:110,	B:120,	C:  7,	D:  6,	E:  0,	H: 13,	L:  0, cy: 1, z: 0, DM[11]:   120, DM[18]:   180
# time:                 842	,pc:  9	,ACC:110,	B:130,	C:  7,	D:  6,	E:  0,	H: 13,	L:  0, cy: 1, z: 0, DM[11]:   120, DM[18]:   180
# time:                 882	,pc: 10	,ACC:110,	B:130,	C:  7,	D:  6,	E:  0,	H: 13,	L:  0, cy: 1, z: 0, DM[11]:   120, DM[18]:   180
# time:                 922	,pc: 11	,ACC:110,	B:130,	C:  7,	D:  6,	E:  0,	H: 12,	L:  0, cy: 1, z: 0, DM[11]:   120, DM[18]:   180
# time:                 962	,pc: 12	,ACC:110,	B:130,	C:  7,	D:  6,	E:  0,	H: 12,	L:  0, cy: 1, z: 0, DM[11]:   120, DM[18]:   180
# time:                1002	,pc: 13	,ACC:110,	B:130,	C:  7,	D:  6,	E:  0,	H: 13,	L:  0, cy: 1, z: 0, DM[11]:   120, DM[18]:   180
# time:                1042	,pc: 14	,ACC:110,	B:130,	C:  7,	D:  5,	E:  0,	H: 13,	L:  0, cy: 1, z: 0, DM[11]:   120, DM[18]:   180
# time:                1082	,pc:  4	,ACC:110,	B:130,	C:  7,	D:  5,	E:  0,	H: 13,	L:  0, cy: 1, z: 0, DM[11]:   120, DM[18]:   180
# time:                1122	,pc:  5	,ACC:110,	B:130,	C:  7,	D:  5,	E:  0,	H: 13,	L:  0, cy: 1, z: 0, DM[11]:   120, DM[18]:   180
# time:                1162	,pc:  6	,ACC:110,	B:130,	C:  7,	D:  5,	E:  0,	H: 14,	L:  0, cy: 1, z: 0, DM[11]:   120, DM[18]:   180
# time:                1202	,pc:  7	,ACC:110,	B:130,	C:  7,	D:  5,	E:  0,	H: 14,	L:  0, cy: 1, z: 0, DM[11]:   120, DM[18]:   180
# time:                1242	,pc:  8	,ACC:110,	B:130,	C:  7,	D:  5,	E:  0,	H: 14,	L:  0, cy: 1, z: 0, DM[11]:   120, DM[18]:   180
# time:                1282	,pc:  9	,ACC:110,	B:140,	C:  7,	D:  5,	E:  0,	H: 14,	L:  0, cy: 1, z: 0, DM[11]:   120, DM[18]:   180
# time:                1322	,pc: 10	,ACC:110,	B:140,	C:  7,	D:  5,	E:  0,	H: 14,	L:  0, cy: 1, z: 0, DM[11]:   120, DM[18]:   180
# time:                1362	,pc: 11	,ACC:110,	B:140,	C:  7,	D:  5,	E:  0,	H: 13,	L:  0, cy: 1, z: 0, DM[11]:   120, DM[18]:   180
# time:                1402	,pc: 12	,ACC:110,	B:140,	C:  7,	D:  5,	E:  0,	H: 13,	L:  0, cy: 1, z: 0, DM[11]:   120, DM[18]:   180
# time:                1442	,pc: 13	,ACC:110,	B:140,	C:  7,	D:  5,	E:  0,	H: 14,	L:  0, cy: 1, z: 0, DM[11]:   120, DM[18]:   180
# time:                1482	,pc: 14	,ACC:110,	B:140,	C:  7,	D:  4,	E:  0,	H: 14,	L:  0, cy: 1, z: 0, DM[11]:   120, DM[18]:   180
# time:                1522	,pc:  4	,ACC:110,	B:140,	C:  7,	D:  4,	E:  0,	H: 14,	L:  0, cy: 1, z: 0, DM[11]:   120, DM[18]:   180
# time:                1562	,pc:  5	,ACC:110,	B:140,	C:  7,	D:  4,	E:  0,	H: 14,	L:  0, cy: 1, z: 0, DM[11]:   120, DM[18]:   180
# time:                1602	,pc:  6	,ACC:110,	B:140,	C:  7,	D:  4,	E:  0,	H: 15,	L:  0, cy: 1, z: 0, DM[11]:   120, DM[18]:   180
# time:                1642	,pc:  7	,ACC:110,	B:140,	C:  7,	D:  4,	E:  0,	H: 15,	L:  0, cy: 1, z: 0, DM[11]:   120, DM[18]:   180
# time:                1682	,pc:  8	,ACC:110,	B:140,	C:  7,	D:  4,	E:  0,	H: 15,	L:  0, cy: 1, z: 0, DM[11]:   120, DM[18]:   180
# time:                1722	,pc:  9	,ACC:110,	B:150,	C:  7,	D:  4,	E:  0,	H: 15,	L:  0, cy: 1, z: 0, DM[11]:   120, DM[18]:   180
# time:                1762	,pc: 10	,ACC:110,	B:150,	C:  7,	D:  4,	E:  0,	H: 15,	L:  0, cy: 1, z: 0, DM[11]:   120, DM[18]:   180
# time:                1802	,pc: 11	,ACC:110,	B:150,	C:  7,	D:  4,	E:  0,	H: 14,	L:  0, cy: 1, z: 0, DM[11]:   120, DM[18]:   180
# time:                1842	,pc: 12	,ACC:110,	B:150,	C:  7,	D:  4,	E:  0,	H: 14,	L:  0, cy: 1, z: 0, DM[11]:   120, DM[18]:   180
# time:                1882	,pc: 13	,ACC:110,	B:150,	C:  7,	D:  4,	E:  0,	H: 15,	L:  0, cy: 1, z: 0, DM[11]:   120, DM[18]:   180
# time:                1922	,pc: 14	,ACC:110,	B:150,	C:  7,	D:  3,	E:  0,	H: 15,	L:  0, cy: 1, z: 0, DM[11]:   120, DM[18]:   180
# time:                1962	,pc:  4	,ACC:110,	B:150,	C:  7,	D:  3,	E:  0,	H: 15,	L:  0, cy: 1, z: 0, DM[11]:   120, DM[18]:   180
# time:                2002	,pc:  5	,ACC:110,	B:150,	C:  7,	D:  3,	E:  0,	H: 15,	L:  0, cy: 1, z: 0, DM[11]:   120, DM[18]:   180
# time:                2042	,pc:  6	,ACC:110,	B:150,	C:  7,	D:  3,	E:  0,	H: 16,	L:  0, cy: 1, z: 0, DM[11]:   120, DM[18]:   180
# time:                2082	,pc:  7	,ACC:110,	B:150,	C:  7,	D:  3,	E:  0,	H: 16,	L:  0, cy: 1, z: 0, DM[11]:   120, DM[18]:   180
# time:                2122	,pc:  8	,ACC:110,	B:150,	C:  7,	D:  3,	E:  0,	H: 16,	L:  0, cy: 1, z: 0, DM[11]:   120, DM[18]:   180
# time:                2162	,pc:  9	,ACC:110,	B:160,	C:  7,	D:  3,	E:  0,	H: 16,	L:  0, cy: 1, z: 0, DM[11]:   120, DM[18]:   180
# time:                2202	,pc: 10	,ACC:110,	B:160,	C:  7,	D:  3,	E:  0,	H: 16,	L:  0, cy: 1, z: 0, DM[11]:   120, DM[18]:   180
# time:                2242	,pc: 11	,ACC:110,	B:160,	C:  7,	D:  3,	E:  0,	H: 15,	L:  0, cy: 1, z: 0, DM[11]:   120, DM[18]:   180
# time:                2282	,pc: 12	,ACC:110,	B:160,	C:  7,	D:  3,	E:  0,	H: 15,	L:  0, cy: 1, z: 0, DM[11]:   120, DM[18]:   180
# time:                2322	,pc: 13	,ACC:110,	B:160,	C:  7,	D:  3,	E:  0,	H: 16,	L:  0, cy: 1, z: 0, DM[11]:   120, DM[18]:   180
# time:                2362	,pc: 14	,ACC:110,	B:160,	C:  7,	D:  2,	E:  0,	H: 16,	L:  0, cy: 1, z: 0, DM[11]:   120, DM[18]:   180
# time:                2402	,pc:  4	,ACC:110,	B:160,	C:  7,	D:  2,	E:  0,	H: 16,	L:  0, cy: 1, z: 0, DM[11]:   120, DM[18]:   180
# time:                2442	,pc:  5	,ACC:110,	B:160,	C:  7,	D:  2,	E:  0,	H: 16,	L:  0, cy: 1, z: 0, DM[11]:   120, DM[18]:   180
# time:                2482	,pc:  6	,ACC:110,	B:160,	C:  7,	D:  2,	E:  0,	H: 17,	L:  0, cy: 1, z: 0, DM[11]:   120, DM[18]:   180
# time:                2522	,pc:  7	,ACC:110,	B:160,	C:  7,	D:  2,	E:  0,	H: 17,	L:  0, cy: 1, z: 0, DM[11]:   120, DM[18]:   180
# time:                2562	,pc:  8	,ACC:110,	B:160,	C:  7,	D:  2,	E:  0,	H: 17,	L:  0, cy: 1, z: 0, DM[11]:   120, DM[18]:   180
# time:                2602	,pc:  9	,ACC:110,	B:170,	C:  7,	D:  2,	E:  0,	H: 17,	L:  0, cy: 1, z: 0, DM[11]:   120, DM[18]:   180
# time:                2642	,pc: 10	,ACC:110,	B:170,	C:  7,	D:  2,	E:  0,	H: 17,	L:  0, cy: 1, z: 0, DM[11]:   120, DM[18]:   180
# time:                2682	,pc: 11	,ACC:110,	B:170,	C:  7,	D:  2,	E:  0,	H: 16,	L:  0, cy: 1, z: 0, DM[11]:   120, DM[18]:   180
# time:                2722	,pc: 12	,ACC:110,	B:170,	C:  7,	D:  2,	E:  0,	H: 16,	L:  0, cy: 1, z: 0, DM[11]:   120, DM[18]:   180
# time:                2762	,pc: 13	,ACC:110,	B:170,	C:  7,	D:  2,	E:  0,	H: 17,	L:  0, cy: 1, z: 0, DM[11]:   120, DM[18]:   180
# time:                2802	,pc: 14	,ACC:110,	B:170,	C:  7,	D:  1,	E:  0,	H: 17,	L:  0, cy: 1, z: 0, DM[11]:   120, DM[18]:   180
# time:                2842	,pc:  4	,ACC:110,	B:170,	C:  7,	D:  1,	E:  0,	H: 17,	L:  0, cy: 1, z: 0, DM[11]:   120, DM[18]:   180
# time:                2882	,pc:  5	,ACC:110,	B:170,	C:  7,	D:  1,	E:  0,	H: 17,	L:  0, cy: 1, z: 0, DM[11]:   120, DM[18]:   180
# time:                2922	,pc:  6	,ACC:110,	B:170,	C:  7,	D:  1,	E:  0,	H: 18,	L:  0, cy: 1, z: 0, DM[11]:   120, DM[18]:   180
# time:                2962	,pc:  7	,ACC:110,	B:170,	C:  7,	D:  1,	E:  0,	H: 18,	L:  0, cy: 1, z: 0, DM[11]:   120, DM[18]:   180
# time:                3002	,pc:  8	,ACC:110,	B:170,	C:  7,	D:  1,	E:  0,	H: 18,	L:  0, cy: 1, z: 0, DM[11]:   120, DM[18]:   180
# time:                3042	,pc:  9	,ACC:110,	B:180,	C:  7,	D:  1,	E:  0,	H: 18,	L:  0, cy: 1, z: 0, DM[11]:   120, DM[18]:   180
# time:                3082	,pc: 10	,ACC:110,	B:180,	C:  7,	D:  1,	E:  0,	H: 18,	L:  0, cy: 1, z: 0, DM[11]:   120, DM[18]:   110
# time:                3122	,pc: 11	,ACC:110,	B:180,	C:  7,	D:  1,	E:  0,	H: 17,	L:  0, cy: 1, z: 0, DM[11]:   120, DM[18]:   110
# time:                3162	,pc: 12	,ACC:110,	B:180,	C:  7,	D:  1,	E:  0,	H: 17,	L:  0, cy: 1, z: 0, DM[11]:   120, DM[18]:   110
# time:                3202	,pc: 13	,ACC:110,	B:180,	C:  7,	D:  1,	E:  0,	H: 18,	L:  0, cy: 1, z: 0, DM[11]:   120, DM[18]:   110
# time:                3242	,pc: 14	,ACC:110,	B:180,	C:  7,	D:  0,	E:  0,	H: 18,	L:  0, cy: 1, z: 1, DM[11]:   120, DM[18]:   110
# time:                3282	,pc: 15	,ACC:110,	B:180,	C:  7,	D:  0,	E:  0,	H: 18,	L:  0, cy: 1, z: 1, DM[11]:   120, DM[18]:   110
# time:                3322	,pc: 16	,ACC:110,	B:180,	C:  6,	D:  0,	E:  0,	H: 18,	L:  0, cy: 1, z: 0, DM[11]:   120, DM[18]:   110
# time:                3362	,pc:  2	,ACC:110,	B:180,	C:  6,	D:  0,	E:  0,	H: 18,	L:  0, cy: 1, z: 0, DM[11]:   120, DM[18]:   110
# time:                3402	,pc:  3	,ACC:110,	B:180,	C:  6,	D:  6,	E:  0,	H: 18,	L:  0, cy: 1, z: 0, DM[11]:   120, DM[18]:   110
# time:                3442	,pc:  4	,ACC:110,	B:180,	C:  6,	D:  6,	E:  0,	H: 11,	L:  0, cy: 1, z: 0, DM[11]:   120, DM[18]:   110
# time:                3482	,pc:  5	,ACC:120,	B:180,	C:  6,	D:  6,	E:  0,	H: 11,	L:  0, cy: 1, z: 0, DM[11]:   120, DM[18]:   110
# time:                3522	,pc:  6	,ACC:120,	B:180,	C:  6,	D:  6,	E:  0,	H: 12,	L:  0, cy: 1, z: 0, DM[11]:   120, DM[18]:   110
# time:                3562	,pc:  7	,ACC:120,	B:180,	C:  6,	D:  6,	E:  0,	H: 12,	L:  0, cy: 1, z: 0, DM[11]:   120, DM[18]:   110
# time:                3602	,pc:  8	,ACC:120,	B:180,	C:  6,	D:  6,	E:  0,	H: 12,	L:  0, cy: 1, z: 0, DM[11]:   120, DM[18]:   110
# time:                3642	,pc:  9	,ACC:120,	B:130,	C:  6,	D:  6,	E:  0,	H: 12,	L:  0, cy: 1, z: 0, DM[11]:   120, DM[18]:   110
# time:                3682	,pc: 10	,ACC:120,	B:130,	C:  6,	D:  6,	E:  0,	H: 12,	L:  0, cy: 1, z: 0, DM[11]:   120, DM[18]:   110
# time:                3722	,pc: 11	,ACC:120,	B:130,	C:  6,	D:  6,	E:  0,	H: 11,	L:  0, cy: 1, z: 0, DM[11]:   120, DM[18]:   110
# time:                3762	,pc: 12	,ACC:120,	B:130,	C:  6,	D:  6,	E:  0,	H: 11,	L:  0, cy: 1, z: 0, DM[11]:   130, DM[18]:   110
# time:                3802	,pc: 13	,ACC:120,	B:130,	C:  6,	D:  6,	E:  0,	H: 12,	L:  0, cy: 1, z: 0, DM[11]:   130, DM[18]:   110
# time:                3842	,pc: 14	,ACC:120,	B:130,	C:  6,	D:  5,	E:  0,	H: 12,	L:  0, cy: 1, z: 0, DM[11]:   130, DM[18]:   110
# time:                3882	,pc:  4	,ACC:120,	B:130,	C:  6,	D:  5,	E:  0,	H: 12,	L:  0, cy: 1, z: 0, DM[11]:   130, DM[18]:   110
# time:                3922	,pc:  5	,ACC:120,	B:130,	C:  6,	D:  5,	E:  0,	H: 12,	L:  0, cy: 1, z: 0, DM[11]:   130, DM[18]:   110
# time:                3962	,pc:  6	,ACC:120,	B:130,	C:  6,	D:  5,	E:  0,	H: 13,	L:  0, cy: 1, z: 0, DM[11]:   130, DM[18]:   110
# time:                4002	,pc:  7	,ACC:120,	B:130,	C:  6,	D:  5,	E:  0,	H: 13,	L:  0, cy: 1, z: 0, DM[11]:   130, DM[18]:   110
# time:                4042	,pc:  8	,ACC:120,	B:130,	C:  6,	D:  5,	E:  0,	H: 13,	L:  0, cy: 1, z: 0, DM[11]:   130, DM[18]:   110
# time:                4082	,pc:  9	,ACC:120,	B:140,	C:  6,	D:  5,	E:  0,	H: 13,	L:  0, cy: 1, z: 0, DM[11]:   130, DM[18]:   110
# time:                4122	,pc: 10	,ACC:120,	B:140,	C:  6,	D:  5,	E:  0,	H: 13,	L:  0, cy: 1, z: 0, DM[11]:   130, DM[18]:   110
# time:                4162	,pc: 11	,ACC:120,	B:140,	C:  6,	D:  5,	E:  0,	H: 12,	L:  0, cy: 1, z: 0, DM[11]:   130, DM[18]:   110
# time:                4202	,pc: 12	,ACC:120,	B:140,	C:  6,	D:  5,	E:  0,	H: 12,	L:  0, cy: 1, z: 0, DM[11]:   130, DM[18]:   110
# time:                4242	,pc: 13	,ACC:120,	B:140,	C:  6,	D:  5,	E:  0,	H: 13,	L:  0, cy: 1, z: 0, DM[11]:   130, DM[18]:   110
# time:                4282	,pc: 14	,ACC:120,	B:140,	C:  6,	D:  4,	E:  0,	H: 13,	L:  0, cy: 1, z: 0, DM[11]:   130, DM[18]:   110
# time:                4322	,pc:  4	,ACC:120,	B:140,	C:  6,	D:  4,	E:  0,	H: 13,	L:  0, cy: 1, z: 0, DM[11]:   130, DM[18]:   110
# time:                4362	,pc:  5	,ACC:120,	B:140,	C:  6,	D:  4,	E:  0,	H: 13,	L:  0, cy: 1, z: 0, DM[11]:   130, DM[18]:   110
# time:                4402	,pc:  6	,ACC:120,	B:140,	C:  6,	D:  4,	E:  0,	H: 14,	L:  0, cy: 1, z: 0, DM[11]:   130, DM[18]:   110
# time:                4442	,pc:  7	,ACC:120,	B:140,	C:  6,	D:  4,	E:  0,	H: 14,	L:  0, cy: 1, z: 0, DM[11]:   130, DM[18]:   110
# time:                4482	,pc:  8	,ACC:120,	B:140,	C:  6,	D:  4,	E:  0,	H: 14,	L:  0, cy: 1, z: 0, DM[11]:   130, DM[18]:   110
# time:                4522	,pc:  9	,ACC:120,	B:150,	C:  6,	D:  4,	E:  0,	H: 14,	L:  0, cy: 1, z: 0, DM[11]:   130, DM[18]:   110
# time:                4562	,pc: 10	,ACC:120,	B:150,	C:  6,	D:  4,	E:  0,	H: 14,	L:  0, cy: 1, z: 0, DM[11]:   130, DM[18]:   110
# time:                4602	,pc: 11	,ACC:120,	B:150,	C:  6,	D:  4,	E:  0,	H: 13,	L:  0, cy: 1, z: 0, DM[11]:   130, DM[18]:   110
